{"lenghtOfSequences":5,
"numberOfSequences":8,
"algorithm":"MOJITO",
"coalescenceMode":"HAVE_ANCESTRAL_MATERIAL_IN_COMMON",
"randomRecombinationMode":"HAVE_ANCESTRAL_MATERIAL_ONLY",
"MargaritaOptimalRecombinationProportion" : 0.9,
"coordinates":[1,2,3,4,5],
"phenotypes":[0,1,1,0],
"dataFile":"8_5.dat"}