FastARG parameters are : 
 -The data file is                     : 500_2000_Nguyen(test1).dat
 -The specified number of sequences is : 500
 -The specified size of sequences is   : 2000
 -The algorithm is                     : ARG4WG
 -The coalescence mode is              : HAVE_ANCESTRAL_MATERIAL_IN_COMMON
 -The recombination mode is            : HAVE_ANCESTRAL_MATERIAL_ONLY
 -The random seed flag is              : false
 -The seed is                          : 1
 -The Rplot settings                   : false


             ***  ARG4GW ARG summary *** 
Basic attributes.
 - Length of sequences   : 2000
 - Number of sequences   : 500
 - Total number of nodes : 24872
 - Total of lives nodes  : 1
 - Sum of mutant loci    : 1

Quantity of each type of event in the current state of the ARG.
 - Mutation event      : 1469
 - Coalescence event   : 7967
 - Recombination event : 7468

Quantity of possible events for each type.
 - Possible mutation event        : 1
 - Possible coalescence event     : 0
 - Number of position to be muted : 1

Constructed in 1323 seconds.

--- Chi square association test on the data only ---
P-values vector for all loci.
{0, 1.04052, 0.114326, 3.11626, 0, 0, 0.0397078, 0, 0, 0, 1.03459, 1.04052, 0.741496, 1.94479, 0, 2.32977, 0, 0.521937, 0, 0.304003, 0.000514188, 1.03459, 0.304003, 0.304003, 0, 0.176182, 0.00404706, 0, 1.81402, 0.0232461, 0.611698, 0, 0.944823, 0.000514188, 0.944823, 0, 0.345558, 0, 0.944823, 0, 1.07389, 0, 1.69292, 0.611698, 0, 0.273405, 0.611698, 0, 0.611698, 0.171034, 2.45229, 0.171034, 0.00404706, 0.280405, 0.0176174, 0.175305, 0.00155505, 0.304003, 0, 0.29182, 0, 1.13181, 0, 0, 0.0351278, 0, 0.00848652, 1.07389, 0, 2.71693e-006, 0.231848, 0, 0, 0.00848652, 1.03459, 0, 0.304003, 0.0351278, 0, 0.171034, 0.00848652, 0, 2.84745, 1.11872, 0, 0.097057, 0, 0.00103252, 1.20873, 0, 0.312849, 0.00746646, 0.937866, 0.00746646, 0, 0.0378128, 0, 0.00155505, 0.090175, 0, 0.0459248, 0.0866093, 0, 1.11872, 0.0720275, 0, 1.20873, 1.03459, 0.157039, 0.0404314, 0.363569, 0.000514188, 0.00110669, 0.90529, 0, 1.03459, 0.00649567, 0, 1.03459, 0.177274, 0.748705, 0.177274, 0, 0, 0, 0, 0, 1.20873, 1.20873, 0, 0.00072786, 0, 0.00955451, 1.03459, 0.970445, 1.20873, 0.970445, 0.0321492, 0.000139178, 0, 1.72295, 1.03459, 0.900759, 0, 0.970445, 0.271998, 0.335942, 0, 0.265283, 2.92305, 1.31359, 0.31804, 0, 0.179203, 1.944, 0.575399, 1.14338, 0.900759, 0, 0, 0.5214, 1.24997, 0.900759, 0.538805, 0.272947, 0.524656, 0.69035, 1.36473, 0.722552, 0, 0, 0, 0.970445, 0.584133, 0.000514188, 0.883, 0, 0, 0.0105308, 2.28938, 2.08087, 0.345558, 0.970445, 2.0122, 0.235697, 2.0122, 2.0122, 0, 1.75352, 2.0122, 0, 0.264614, 1.68243, 0.892076, 0.970445, 0.0151618, 0.397581, 0.11263, 0.173153, 2.28938, 0, 0.128586, 0, 1.40351, 0, 0, 0, 0, 0, 0, 0.148118, 0, 0, 0.830389, 2.91428, 2.0122, 1.28493, 1.11051, 0.00103252, 2.91428, 0.830389, 2.30627, 0.403436, 0, 0.52368, 0.970445, 1.28493, 4.89143, 0, 0.284704, 0, 0.0863503, 0.750241, 0, 0.168954, 0.830389, 0, 0, 0, 0, 0.611698, 0.14029, 0.0126344, 0, 1.9189, 0, 0, 0.750241, 2.76134, 0.757121, 0, 0.112157, 0, 0.757121, 0, 1.9189, 0, 0.750241, 0, 0.741496, 0, 0, 0.0126344, 0.160837, 2.52117, 0, 0.147733, 1.345, 0.160837, 0.693909, 0.993121, 1.45031, 0, 0.148118, 0.00288309, 0.278731, 4.06349, 0.720285, 0.111134, 1.68906, 0, 0.111134, 0.15742, 0.00478131, 0, 0.884298, 0.441348, 0, 1.09286, 0, 0.865961, 0.0417756, 0.00478131, 1.09286, 0, 0.652096, 0.0720944, 0.040021, 0.0720944, 5.09658, 0, 0.118707, 2.47247, 0, 0.304003, 1.09286, 0.364401, 0.364401, 0.364401, 0, 1.09286, 0.364401, 1.09286, 0, 0, 4.48258, 0, 2.6779, 0, 0, 1.09286, 1.23864, 0.364401, 0.364401, 0, 1.09286, 1.09276, 0, 4.90384, 0, 0, 0.730116, 0.69782, 1.02158, 0, 0, 1.41349, 0, 1.43254, 0.95465, 0.983246, 4.48938, 1.48678, 1.0058, 2.02904, 0, 1.38207, 1.38207, 1.38207, 0.380034, 0.345558, 0.380034, 0, 0.650268, 0.242062, 1.37683, 0.000514188, 0, 0.276777, 0.0819501, 1.03459, 0.258254, 0.392181, 0.603135, 0.669941, 0.675071, 0, 0.669941, 0.444856, 0.264068, 0, 0.37702, 1.15552, 0.131477, 0.557489, 0.557489, 0, 0.0378128, 0.0378128, 0, 1.24828, 0.0161483, 1.02696, 0.69574, 1.34257, 0.525788, 0.476204, 0.00797042, 0.840484, 0.840484, 0.191076, 0.210729, 0.00993358, 0.0293763, 0.0322811, 0.387705, 1.01997, 0.191167, 0.925568, 1.62686, 0, 0.672412, 0.28933, 0.000514188, 0.218155, 0.204292, 0.954597, 0.991714, 0, 0.00236917, 0.840827, 0.90449, 0, 0.601043, 0, 0.390395, 0.0112442, 0, 0, 0, 0, 0.000514188, 0.00728325, 0.522067, 0.19643, 0.19643, 0, 0.872223, 0, 1.12074, 0.000514188, 0, 0, 0.6158, 1.13181, 0, 0, 0, 0, 0, 0.0803368, 1.01398, 0.461265, 0.137816, 1.4894, 0.0219211, 0.00104804, 0.54055, 0, 0.270793, 0, 0, 0.000294253, 0.0048598, 0.169282, 0.0985506, 0, 0, 0.169282, 0.000514188, 0, 0, 0, 0, 0, 0.351017, 0.182254, 0, 0.368406, 1.59184, 0.0229493, 0, 1.44641, 0.0728795, 0, 0.00690666, 0.0725173, 2.76951, 1.23949, 1.21302, 0.279175, 0, 0.304003, 1.51238, 0.0829287, 0.172181, 0.168459, 0.168459, 0, 0.416842, 0, 0, 0, 1.68694, 0, 0, 2.27922, 1.12326, 0, 1.50426, 0.248534, 0.891709, 1.55772, 0.171999, 0.171999, 0.175305, 0.799189, 0.86929, 0.0194704, 0.842315, 0, 1.2641, 1.13087, 2.48766, 0, 0.524968, 0.439488, 0.00261291, 0, 0.439488, 0, 0.567259, 3.22521, 2.13081, 0.567259, 0, 2.07333, 0, 2.32105, 0, 0, 1.44038, 0.306861, 0.0155017, 5.12209, 0, 0, 0.725725, 0.345558, 0.279175, 5.40397, 6.87504, 0, 6.87504, 5.76489, 4.42665, 0.521273, 0.521273, 0.279175, 5.90539, 0, 0.521273, 6.97907, 0, 0.521273, 2.52761, 0, 0.235697, 0.0418672, 0.000139178, 0, 0.345558, 1.20245, 0.0105194, 0, 0.0874751, 0.406292, 0, 5.54842, 0, 0.0105194, 0.0386766, 1.39673, 1.04805, 0, 1.85866, 0.235697, 0.684675, 0, 2.37426, 0.271998, 0.111134, 0.00136188, 0.273943, 0.405977, 0.405977, 0.268495, 0.273943, 0, 0, 0.521937, 1.69503, 0.0059493, 4.26577, 0.348813, 0.215683, 0, 0, 0.352854, 3.14807, 2.01098, 0, 0, 4.87983, 1.73293, 6.26478, 0, 2.16369, 0.527821, 0, 0.527821, 0.725725, 2.16369, 1.27056, 0, 0.725725, 0, 0.604941, 0.75871, 0.0397078, 0, 5.76548, 1.54786, 0.520491, 5.25578, 3.17728, 1.40351, 0.0611766, 0.273352, 5.84923, 5.70055, 3.51159, 0, 1.51544, 4.42465, 0, 1.07389, 0.52368, 0, 0, 0.0180128, 5.77801, 0.00544374, 3.44706, 0, 0.223385, 0.0130073, 0.0829287, 1.23844, 4.95168, 1.03459, 2.26322, 0, 1.87248, 1.87248, 0, 4.87224, 0.04192, 1.07389, 1.94479, 0, 0, 0.453288, 4.95168, 0, 5.46545, 4.28522, 1.07389, 0, 0.6158, 0, 0, 2.07115, 0.444856, 0.287961, 0, 2.57171, 0, 0.0136859, 3.32171, 0.0158424, 2.15827, 0.501492, 0.346859, 2.15827, 2.5752, 3.32171, 2.5365, 2.45365, 2.45365, 1.68076, 6.85105, 1.69561, 0, 0, 5.68959, 0.767163, 5.68959, 3.34936, 0.889608, 0.462176, 2.00329, 4.77579, 11.9269, 5.98585, 5.51896, 0, 0.00677564, 0, 0.754641, 0, 0, 5.4249, 0.00463868, 0.148118, 0.704957, 1.51729, 0.0069748, 1.52767, 5.82567, 0.102384, 0, 6.51398, 0.120293, 0.874441, 0.493787, 0.0116707, 0.395203, 0.282033, 0, 0.820264, 0.265988, 0, 0, 1.39673, 0, 1.89391, 1.35219, 0.277376, 0.0977648, 0.265988, 1.19265, 1.47737, 1.70719, 0.000205181, 1.03459, 1.03459, 0, 0, 0.182953, 0.445285, 0.611698, 0.0329694, 0, 0.388468, 0, 0.00368819, 0, 0, 0.0829287, 0.572427, 0.975698, 0, 0, 0.699133, 0.0166028, 0.0517885, 0.978075, 0.696717, 0, 0.741286, 0.418468, 0, 1.10818, 0.567259, 0.567259, 0, 3.27953, 0.00759516, 0, 0, 0, 1.07747, 0.00875438, 1.15229, 0, 4.27521, 1.08143, 0.182953, 0, 0.249794, 0.198311, 1.57337, 0.191167, 0.191167, 0.115856, 0.595157, 0.0053347, 0.0105638, 1.19879, 0.128586, 3.11626, 1.4894, 0.00322397, 0.0474387, 1.02671, 0.235936, 2.6779, 0.0382615, 0.000514188, 3.05725, 0, 1.88466, 0.0382615, 2.87436, 3.44116, 0, 0.182953, 0, 0.44745, 0, 0.218155, 3.07804, 0, 1.8954, 0.0322811, 0.270793, 0, 0.187039, 3.04934, 0.270793, 0.0497905, 2.345, 0.0427879, 0.0403961, 1.72295, 0.327769, 0.0403961, 0, 2.5117, 2.5117, 0, 0.0495518, 6.65751, 4.90589, 0.128579, 0, 0.327769, 0, 4.90589, 0, 0.0722627, 0, 1.92815, 0, 1.36255, 0.000487736, 0.327769, 0, 0, 0.242062, 0.000487736, 4.90589, 7.85294, 0.000487736, 0.000487736, 0.000487736, 0, 0.235052, 0.0168007, 1.94897, 0, 0.235052, 9.63333, 1.22926, 1.02671, 0.276197, 0.0453181, 0.0829287, 0.221832, 0, 0.232551, 0.0320082, 0.0320082, 0.030738, 0, 0.030738, 0.221832, 0, 2.52761, 0, 0.699133, 0.453934, 0.0829287, 1.03459, 0.217514, 0.699133, 0.00845513, 0, 0, 0.00103252, 0, 0.289494, 0.175626, 0.0105194, 0.0322811, 0.304003, 0, 0, 0.00061958, 0.304003, 0, 0, 0.00990265, 1.86231, 1.80313, 0.0130371, 0.0146062, 0, 0.304003, 0.304003, 0.0210811, 0, 0.0796405, 0.304003, 0.0330428, 0.0276345, 0.00183747, 0, 0.00627476, 1.15229, 0.696717, 0.696717, 0, 0, 0, 0.9064, 0, 0, 0.148118, 0.726498, 0.726498, 0.745957, 0.00314835, 0, 3.35496, 0, 0.726498, 0.00261291, 0.365988, 2.11086, 0, 0, 0, 3.20337, 0, 0.383343, 0, 1.86711, 0, 0.235697, 0, 0.105704, 1.10447, 1.86711, 1.10447, 3.11626, 1.42456, 1.21457, 2.65121, 0.429739, 0.0227598, 0.00261291, 1.29948, 0.118184, 3.78602, 0.000160991, 0.466059, 3.90024, 4.18602, 0, 0.0397078, 0.000514188, 0.679123, 0.00208183, 1.03459, 0.00208183, 0, 0.970445, 0.0366998, 0.477449, 0.0845216, 0.000627612, 0.0251165, 1.03459, 1.56418, 0.053842, 0.0440543, 0.0288701, 0, 0.0210811, 0.0397078, 0.249361, 0, 0.00261291, 0.0561086, 0.330997, 4.10429, 0.142739, 0, 5.8572, 0.026791, 3.11325, 0, 5.8572, 2.65745e-005, 0.114278, 1.03459, 0, 4.10429, 8.11637, 1.03459, 3.11325, 7.10715, 1.03459, 1.27359, 0.985479, 0.0358208, 1.35176, 0.147038, 0, 0, 0, 3.27953, 0.00425041, 0.105704, 1.87659, 3.27953, 3.89569, 0.00213887, 0, 0, 1.29564, 0.0128671, 0.0128671, 0, 4.10429, 0.105704, 0, 0, 0, 0, 0, 0.0128671, 0, 2.66879, 0.105704, 0.0796405, 0.105704, 0.105704, 0.000826468, 0.00261291, 1.03459, 0, 1.03459, 1.03459, 0.290738, 1.66112, 0.00649567, 0.944823, 0.235697, 1.27921, 1.5104, 0.235697, 0, 0, 0.166198, 0.972249, 6.45014, 0.00649567, 3.11626, 0, 0.709266, 2.61242, 2.07333, 0, 0.389582, 0, 0.264232, 0.0336248, 0.923153, 0, 2.07333, 0, 1.99498, 0, 0, 0.235484, 0, 1.48911, 1.43858, 1.43858, 1.43858, 1.9007, 0.812976, 1.43858, 0.136498, 3.89925, 1.37543, 1.21808, 1.34732, 0.0118304, 0.0187938, 0.0782907, 0.0366998, 0.0194704, 1.35813, 1.16492, 1.03459, 0.970445, 2.284, 0.100253, 0.976857, 0.575399, 0, 0.976857, 0.172111, 1.03459, 0.0361118, 0.970445, 0.174087, 0.611698, 0.00389837, 0.0853114, 1.71522, 0, 1.53998, 0.0985506, 1.71975, 0, 0.0296431, 0.166637, 1.46602, 1.03459, 0, 0.978075, 4.23842, 0.978075, 0, 0.970445, 0.0720838, 0, 2.13715, 0.0829287, 0.30311, 0, 0.645286, 1.88466, 2.10437, 0, 0, 0.27909, 0.376622, 0.746812, 0.445285, 1.77261, 2.189, 1.2244, 0.624272, 0.160837, 0, 0.0244386, 0, 0.00779106, 0.053832, 0.053832, 0.0281048, 0.0639399, 0, 0.0281048, 0.368406, 0.0720944, 0.00213887, 0.236877, 0, 0.147038, 0, 0.000205181, 0.0981059, 0.414759, 0.396903, 0.00155459, 0.00155459, 0.255832, 0, 0.353366, 0.157039, 0.353366, 0.790197, 0.401076, 0.08971, 0.0853114, 0.151493, 0, 0.151493, 0.0236648, 0, 0.0236648, 2.07333, 0.00557587, 0, 1.44242, 0, 0, 1.72295, 0.0604549, 0.00110669, 0, 0.0604549, 0.970445, 0, 0, 0, 0, 0.0604549, 1.03505, 0, 1.67904, 1.23338, 1.74871, 0.00277629, 0.864223, 1.03459, 1.11439, 0, 0.00103252, 0.371137, 0.0142009, 0.486861, 0, 0.67312, 0, 0, 0.00103252, 0, 0.000671501, 0.168954, 0.538282, 0.487383, 0, 0, 0.487383, 0.673643, 2.49869e-005, 0.278401, 0.0136575, 0.0136575, 0, 0.118521, 0.115277, 0.287658, 0, 0.35522, 3.34533, 2.0886, 1.24393, 0.533048, 0.533048, 0.90852, 0.533048, 0, 0.342676, 0.0829287, 0.342676, 0.0829287, 0.304003, 0.00208183, 0.240793, 1.13414, 0.678906, 0.262311, 0.0915455, 0.65242, 0.547953, 0.532685, 0, 0, 0.651768, 0, 1.58899, 0.00103252, 0.532685, 2.24116, 3.42101, 0, 0.118707, 1.54921, 1.81376, 0.00287037, 0.741286, 1.4904, 2.27561, 0, 0, 0, 2.38694, 0, 0, 2.75969, 0, 0.136042, 0, 1.95151, 0, 0.0181073, 0.0458525, 0, 0, 1.71329, 2.45028, 0.0200546, 0, 2.29744, 0.00287037, 0.0587906, 0.185626, 1.29745, 0.185626, 0, 1.48023, 1.49272, 0.304003, 3.97496, 1.98008, 0, 3.34519, 0.100964, 0, 0.0559224, 0, 0.0727898, 1.13432, 0.0727898, 0.787576, 0.390359, 0.343105, 0.0182083, 0.864221, 0, 0.182953, 0.105704, 3.05241, 0.330997, 2.01472, 0.0219211, 0.115072, 0, 0.173153, 0.899922, 0.18944, 0.011741, 0.0935214, 0.155637, 0.368406, 0.320676, 5.44561, 0.346859, 0.00287037, 0.800205, 0.00191805, 2.83089, 0, 0.175305, 0.114444, 0, 0, 0.00423249, 1.8845, 0, 0, 0.47321, 0.47321, 0, 0.306861, 1.14205, 0.306861, 1.49442, 3.95969, 0.543223, 1.49442, 1.34257, 0.304003, 0.481853, 0.298743, 0, 0.970445, 0.097377, 0, 2.12518, 2.47402, 2.12645, 3.42372, 0.628306, 0.923153, 0.675071, 0, 0.171034, 0.00103252, 0, 0.171034, 0, 1.63159, 0.288074, 0, 0.285847, 0, 0, 0.291173, 3.12414, 2.18472, 0, 1.75652, 0, 6.53658e-005, 0.936368, 4.04945, 3.24739, 3.1149, 0.00139906, 1.13087, 0.38057, 0, 4.96851, 0, 0.38057, 0.235484, 0.0520938, 0, 0.38057, 0.00261291, 0.0520938, 0, 4.96851, 2.00504, 0.0395494, 2.0463, 0.442618, 2.67902, 0, 0.0395494, 0.265988, 5.56922, 0.00155505, 0.0744468, 0.741496, 1.6773, 0, 2.82248, 1.6502, 0, 4.13093, 4.13093, 0.254728, 0, 2.18513, 1.40351, 0, 1.44038, 1.28185, 0.0548712, 0, 1.40351, 0.306861, 3.27424, 0.259828, 0.00103252, 0.360868, 0, 0.0977648, 0.854951, 0, 0, 1.01398, 0.674276, 0.568703, 1.56418, 2.84745, 2.61939, 0.00429662, 0.114278, 0.410994, 0.411725, 0.4011, 0, 4.8121, 3.2309, 5.89119, 5.89119, 0.552164, 0, 0.278379, 0.0728795, 3.2309, 3.2309, 0, 4.40283, 0.0829287, 3.69705, 0.221412, 0.276777, 0.115277, 0.0422236, 1.92071, 2.65745e-005, 0.812976, 0.937866, 0, 0.125519, 0.00164736, 0, 0.00164736, 1.11872, 0.0671391, 0, 0.970445, 0, 0.0181073, 0, 0, 0, 0.0181073, 0.0276345, 0, 0, 0.0276345, 0, 0.0276345, 0.0276345, 0, 1.291, 0.00602927, 0, 0.0911517, 1.03459, 0.0911517, 0, 0.473775, 1.14205, 0, 0.618441, 0, 0.310436, 0, 1.14205, 0, 0.29349, 0.0911517, 1.50078, 0.476204, 0.0105308, 0, 0.0105308, 1.50078, 0, 1.34257, 0.0911517, 0.476204, 1.11695, 0.476204, 0.0048598, 0.0538495, 0, 0.146016, 4.97145, 0, 0.306861, 2.56656, 0.29349, 1.23864, 0, 0, 0, 0.0725173, 1.69835, 0, 0.971082, 0.708117, 0, 0.30451, 0.208219, 0.129908, 0.147916, 0, 0.0811711, 1.24647, 0, 1.24647, 2.13744, 0.0243872, 1.16649, 1.24647, 2.77345, 0.129908, 0, 2.77345, 0.0920588, 0.476204, 0, 0, 0, 1.24647, 0, 0, 4.04563, 0.0494907, 0.20376, 0.332808, 0.073992, 0.0763294, 0, 0.114326, 0.000671501, 0.126978, 0.126978, 0, 0.126978, 0, 1.44823, 0.541289, 0.236877, 1.46476, 0.741286, 0.18193, 0.236877, 0.201789, 1.91694, 0.00139994, 0.0639399, 1.94479, 0.231848, 1.03378, 1.03378, 0.316218, 0, 0.262443, 1.53235, 1.54921, 0.363926, 0, 0.0244386, 0.169282, 0.169282, 0.169282, 0.363926, 0, 0, 0.114278, 0.284704, 0.605796, 0.164816, 0.236877, 0.445285, 0.278379, 0.0812525, 0.184428, 0.278379, 0.0381331, 0.645286, 0, 0.458949, 0.137424, 0.080305, 0.264068, 0, 0.0633671, 0.0633671, 0.827563, 0.000514188, 0.264068, 1.83678, 0.0784774, 0.767631, 0, 0.985479, 0, 1.09072, 0, 1.19926, 1.19926, 0, 0, 0, 0, 0.324049, 2.46851, 0.00144474, 0.748858, 0.26713, 0, 1.32734, 0.914872, 0, 0, 1.58898, 0.218155, 0.0135964, 0.604455, 0.0181073, 0.914872, 1.02895, 0.914872, 0.396692, 0.00513575, 0.578369, 0.243208, 0.483871, 0.652096, 0.617835, 0.617835, 0.777182, 1.13451, 0.617835, 0.493157, 4.88158, 0.669941, 0.168773, 1.68338, 0.529192, 0.0245159, 1.8845, 0.338021, 1.02773, 0.179267, 0.559182, 0, 0.401441, 0.559182, 0, 0.652096, 2.46496, 0.537144, 0.00322397, 0.182953, 0.0130073, 0, 0.0130073, 0.401441, 1.44641, 0.401441, 0.104746, 0, 0.845162, 0.4011, 0.0136859, 0.00478131, 0.496382, 0.895976, 1.06957, 0.0459248, 0, 0.0320082, 0.0985506, 1.03561, 0.912268, 1.85406, 1.58309, 0.179203, 0.121585, 0, 0.382339, 0.077557, 0.0224192, 0, 6.02791e-005, 0.0224192, 0, 0.215683, 0.00105588, 0.279175, 0.865567, 4.1528, 1.81226, 0.423891, 0, 0.970445, 2.23245, 0, 1.37235, 0, 1.87883, 2.46183, 0.461524, 0.169282, 0, 0, 0, 0.00478131, 2.47477, 2.47477, 3.74629, 0.464879, 2.24614, 0, 1.86127, 0, 0, 1.9563, 0, 0.0782907, 0, 4.48938, 4.11148, 5.75314, 1.71829, 1.09703, 0, 2.41997e-005, 0.053842, 0.167721, 0.0918396, 0.0288701, 0.00103252, 0.264203, 0, 0.970445, 0.0598278, 0.00261212, 2.00504, 0, 0.162951, 0.265283, 0.00690666, 0.346504, 0.0381331, 0.00859231, 0.166198, 0.165489, 0, 0, 0.00213887, 0.923153, 0, 0.137424, 0.699133, 0, 1.08079, 0, 0, 0.944823, 2.70078, 0.944823, 0.0265095, 2.70078, 0, 0, 2.70078, 0, 0.0825474, 0, 0, 0, 0, 0, 0.157039, 0, 0.944823, 2.70078, 0, 1.03459, 2.3043, 0, 0.553323, 1.75632, 0, 2.3043, 0.970445, 0, 0, 0.0182083, 0.970445, 0.970445, 0, 0, 0, 3.60351, 2.85598, 2.3043, 0, 0.970445, 2.47787, 2.3043, 1.75632, 1.20873, 0, 0, 0, 0.00208183, 0, 1.75632, 0, 0, 1.75632, 0.000514188, 0.077077, 1.75632, 0.575399, 0.944823, 0, 0.000514188, 0, 0.970445, 0.604896, 0, 0.0631298, 0, 0, 0, 0.970445, 0, 0.970445, 0, 1.61689, 0, 0.221832, 0, 2.37989, 0.346161, 0, 0, 0, 0, 2.37989, 0, 2.37989, 0, 0, 0.970445, 0, 0, 0, 2.37989, 0, 0, 0, 0, 0, 0, 0, 0.221832, 2.00504, 0, 0, 0.215593, 0, 0, 0.944823, 0, 0.00368819, 0, 0.235052, 0.341286, 2.37989, 0.288696, 0, 1.94479, 0, 0.0181234, 0.0069748, 0, 0.235484, 2.53932, 0.0851505, 0.270671, 0.970445, 0.970445, 5.31984, 0.0851505, 5.31984, 5.31984, 0, 0.072103, 0.00589272, 0.22678, 0.00155459, 2.92305, 0.0733648, 0.278731, 2.92305, 2.92305, 0, 0, 1.68272, 0.970445, 0.00602927, 0.605796, 0, 0, 0, 0.970445, 0.00615909}
The best candidate index:coordinate(s) is/are : 704:704,  with a chi-2 statistic of = 11.9269 and with a p-value of 0.000553294.

--- Chi-2 association test on the ARG with the maximum value. ---
Maximum chi-2 vector with the ARG for all loci.
{0, 1.04052, 1.58889, 4.25616, 0, 0, 1.58667, 0, 0, 0, 3, 1.04052, 0.741496, 3, 0, 2.32977, 0, 0.521937, 0, 0.349916, 0.375, 1.33333, 0.349916, 0.349916, 0, 0.176182, 0.0634347, 0, 3.67725, 0.189495, 0.666859, 0, 1.875, 0.75, 1.875, 0, 0.602408, 0, 1.875, 0, 1.1109, 0, 2.77274, 0.9, 0, 0.273405, 1.66667, 0, 1.66667, 1.1025, 2.45229, 1.1025, 0.0425151, 0.875671, 0.0176174, 0.175305, 0.342857, 0.386651, 0, 0.29182, 0, 1.13181, 0, 0, 0.0351278, 0, 0.27226, 1.15776, 0, 2.71693e-006, 0.231848, 0, 0, 0.602401, 3, 0, 0.311067, 0.0351278, 0, 0.171034, 1.40539, 0, 2.85374, 1.93452, 0, 0.978674, 0, 0.0343915, 1.20873, 0, 0.53703, 0.00746646, 0.957838, 0.00746646, 0, 0.0378128, 0, 0.625, 0.090175, 0, 0.0459248, 0.0866093, 0, 1.77561, 1.83673, 0, 1.20873, 3, 0.346154, 1.1424, 0.363569, 0.0486111, 0.00187527, 1.96314, 0, 1.03459, 0.0109558, 0, 1.03459, 0.177274, 0.748705, 0.177274, 0, 0, 0, 0, 0, 1.20873, 1.20873, 0, 0.00637986, 0, 0.00955451, 1.14218, 2, 1.20873, 0.970445, 0.659584, 1.07129, 0, 2.67538, 1.08375, 6.61818, 0, 0.982123, 1.16275, 5.45361, 0, 1.15397, 2.92305, 1.31359, 0.572117, 0, 0.685714, 1.944, 0.575399, 1.67326, 0.941431, 0, 0, 0.5214, 1.24997, 0.900759, 0.538805, 0.272947, 5.20661, 0.69035, 5.62132, 0.722552, 0, 0, 0, 3, 0.584133, 0.0160726, 0.883, 0, 0, 1.79636, 2.28938, 2.08087, 1.0101, 1.77778, 2.0122, 0.444736, 2.0122, 2.0122, 0, 3.34438, 2.0122, 0, 0.264614, 4.96699, 5.40857, 6, 1.09059, 2.62634, 0.11263, 0.173153, 2.28938, 0, 0.495114, 0, 1.40351, 0, 0, 0, 0, 0, 0, 0.483558, 0, 0, 0.830389, 2.91428, 2.0122, 1.28493, 5.50731, 0.833333, 2.91428, 0.830389, 2.30627, 0.403436, 0, 0.52368, 0.970445, 3.72073, 5.13468, 0, 0.643741, 0, 0.300752, 0.750241, 0, 0.665536, 0.830389, 0, 0, 0, 0, 1.14448, 0.657143, 1.03704, 0, 1.9189, 0, 0, 0.759367, 2.76134, 1.88815, 0, 0.112157, 0, 1.18624, 0, 2.35037, 0, 2.64113, 0, 1.63636, 0, 0, 0.30402, 1.6678, 2.52117, 0, 0.95814, 1.345, 3.04158, 0.693909, 0.993121, 1.45031, 0, 0.155012, 0.00288309, 0.695176, 4.06349, 0.720285, 1.11713, 1.68906, 0, 1.54074, 0.15742, 0.0848174, 0, 0.884298, 0.769677, 0, 1.33488, 0, 0.894981, 0.0417756, 0.0169461, 1.41089, 0, 0.652096, 0.0720944, 0.040021, 0.0720944, 5.09658, 0, 0.768252, 2.47247, 0, 0.806061, 1.64783, 0.364401, 0.364401, 0.364401, 0, 1.64783, 0.364401, 1.48197, 0, 0, 4.48258, 0, 2.6779, 0, 0, 1.73666, 1.40769, 0.364401, 0.364401, 0, 1.64783, 1.90751, 0, 4.90384, 0, 0, 1.08491, 0.821924, 1.02158, 0, 0, 1.41349, 0, 3.39959, 0.95465, 0.983246, 4.8371, 3.11949, 1.36719, 2.02904, 0, 2.84361, 2.84361, 2.84361, 0.380034, 2.4, 0.380034, 0, 0.650268, 0.242062, 1.37683, 0.0103022, 0, 0.553214, 1.2473, 1.1286, 0.964603, 0.392181, 0.984754, 0.669941, 0.675071, 0, 0.669941, 0.735442, 1.36983, 0, 1.09816, 1.2347, 0.131477, 0.607031, 0.607031, 0, 0.22713, 0.22713, 0, 1.42447, 0.982759, 1.42236, 1.22738, 1.36706, 2.0063, 0.559819, 1.27415, 0.840484, 0.840484, 0.191076, 0.298191, 0.0104524, 0.0293763, 0.111455, 0.405148, 1.01997, 0.191167, 0.925568, 1.62686, 0, 0.672412, 0.309711, 0.75, 0.421959, 0.423047, 0.954597, 2.33558, 0, 0.823156, 0.840827, 1.90553, 0, 1.38854, 0, 0.390395, 0.0112442, 0, 0, 0, 0, 0.104167, 0.00728325, 0.522067, 0.473107, 0.473107, 0, 0.872223, 0, 1.12074, 1.875, 0, 0, 0.787953, 1.13181, 0, 0, 0, 0, 0, 1.0006, 1.01398, 1.24837, 0.137816, 1.92308, 0.0774554, 1.55031, 0.844317, 0, 0.344203, 0, 0, 0.947962, 0.924324, 0.23614, 0.774042, 0, 0, 0.831403, 0.186667, 0, 0, 0, 0, 0, 0.351017, 0.182254, 0, 0.654179, 1.74065, 0.747145, 0, 1.44641, 0.0728795, 0, 0.729517, 0.0725173, 3.2657, 1.23949, 1.31754, 0.373333, 0, 0.47619, 1.51238, 0.226088, 0.172181, 0.168459, 0.168459, 0, 0.416842, 0, 0, 0, 1.68694, 0, 0, 2.27922, 1.12326, 0, 1.86317, 1.49093, 2.27851, 1.9654, 0.171999, 0.171999, 0.175305, 1.36267, 0.86929, 0.0819014, 0.842315, 0, 1.2641, 1.34564, 3.12871, 0, 0.59002, 0.776439, 0.509259, 0, 0.776439, 0, 1.10462, 3.22521, 2.13081, 2.94038, 0, 2.50543, 0, 2.32105, 0, 0, 1.44038, 1.13035, 0.0155017, 5.36223, 0, 0, 0.969952, 1.65817, 1.69366, 5.64799, 7.199, 0, 6.90912, 5.82357, 4.9803, 0.56352, 0.56352, 0.279175, 5.90539, 0, 0.546135, 6.97907, 0, 0.579875, 3.37355, 0, 1.2, 0.49183, 0.73432, 0, 0.996327, 1.20245, 1.0051, 0, 0.955726, 1.64535, 0, 6.1875, 0, 4.67134, 0.883208, 1.39673, 1.8606, 0, 4.93951, 0.948281, 0.684675, 0, 2.37426, 0.271998, 0.519167, 0.130437, 0.273943, 0.405977, 0.405977, 0.268495, 0.273943, 0, 0, 0.521937, 1.69503, 0.331472, 4.26577, 0.348813, 0.726162, 0, 0, 1.35557, 3.14807, 2.01098, 0, 0, 8.71446, 3.31567, 6.26478, 0, 2.16369, 0.527821, 0, 0.527821, 1.50553, 2.16369, 1.27056, 0, 1.50553, 0, 1.28227, 2.09152, 1.7, 0, 5.76548, 2.21086, 1.57726, 5.25578, 3.17728, 4.28571, 3.39511, 2.03225, 5.84923, 5.70055, 3.51159, 0, 1.51544, 4.42465, 0, 5.625, 1.05, 0, 0, 2.63578, 5.77801, 2.25111, 3.44706, 0, 2.0362, 3.14449, 2, 1.23844, 4.95168, 1.44, 2.26322, 0, 1.87248, 1.87248, 0, 4.87224, 6.83775, 2.52639, 3.73333, 0, 0, 0.453288, 9.10735, 0, 10.2106, 4.29154, 2.52639, 0, 0.6158, 0, 0, 2.07115, 0.556466, 0.291285, 0, 2.70441, 0, 1.91978, 7.98593, 1.92163, 2.25081, 0.55262, 0.397389, 2.25081, 2.73775, 8.65362, 8.94097, 2.71181, 2.71181, 1.89155, 12.0645, 2.64515, 0, 0, 7.31801, 6.8822, 7.31801, 3.34936, 6.36313, 5.14539, 2.06612, 4.77579, 12.1321, 6.22044, 6.08419, 0, 2.88938, 0, 4.27901, 0, 0, 5.55375, 0.127407, 1.11111, 5.24617, 1.51729, 0.0069748, 1.63612, 8.26473, 0.102384, 0, 6.51398, 0.662503, 0.902931, 0.493787, 0.140032, 0.395203, 0.282033, 0, 1.71345, 1.14179, 0, 0, 1.82977, 0, 1.89391, 1.35219, 1.38204, 1.12145, 2.05502, 1.19265, 1.47737, 1.70719, 0.303937, 1.03459, 1.03459, 0, 0, 0.182953, 0.553982, 0.720117, 0.22173, 0, 0.732716, 0, 1.77778, 0, 0, 0.334706, 0.717183, 1.22988, 0, 0, 0.830358, 0.0166028, 0.0711238, 4.08221, 0.696717, 0, 0.965963, 3.19327, 0, 1.10818, 0.567259, 0.567259, 0, 3.38506, 0.56922, 0, 0, 0, 1.07747, 0.0158651, 1.15229, 0, 4.27521, 3.81721, 0.455785, 0, 1.91191, 0.401944, 2.19754, 1.19394, 1.19394, 1.03142, 3.94738, 0.0675441, 0.150419, 3.96396, 1.09091, 3.96396, 2.13286, 1.87915, 2.74107, 2.13936, 2.51391, 4.32831, 0.624027, 1.33333, 4.42164, 0, 3.64053, 1.06616, 3.21434, 5.2071, 0, 1.59212, 0, 0.44745, 0, 0.382906, 4.26735, 0, 3.17299, 0.253913, 2.23252, 0, 0.419452, 3.45024, 1.38787, 1.97222, 3.09396, 0.314943, 0.314839, 1.72295, 0.642629, 0.314839, 0, 3.1765, 3.1765, 0, 4.00029, 7.08147, 5.5434, 0.666236, 0, 0.772379, 0, 5.5434, 0, 2.34829, 0, 1.92815, 0, 1.36255, 1.10108, 7.09607, 0, 0, 1.51234, 1.3004, 4.90589, 7.85294, 3.12554, 3.12554, 3.12554, 0, 8.09778, 0.983333, 1.94897, 0, 1.7012, 9.63333, 1.22926, 1.02671, 0.276197, 0.0453181, 4.85378, 0.986584, 0, 0.232551, 4.87838, 4.87838, 0.030738, 0, 0.030738, 0.413055, 0, 2.66381, 0, 0.786493, 0.453934, 0.0829287, 2.18182, 0.217514, 0.821617, 0.00845513, 0, 0, 2.71515, 0, 0.289494, 0.308412, 0.0245842, 0.453383, 0.490783, 0, 0, 0.344389, 0.710842, 0, 0, 0.00990265, 2.78628, 1.80313, 0.625287, 0.895616, 0, 0.9, 0.9, 0.502564, 0, 0.0796405, 0.533333, 0.73326, 0.304881, 0.126324, 0, 0.389345, 1.15229, 0.696717, 0.696717, 0, 0, 0, 0.9064, 0, 0, 0.735655, 0.726498, 0.726498, 0.745957, 0.00314835, 0, 3.39382, 0, 0.798993, 0.00261291, 2.64171, 3.64414, 0, 0, 0, 3.38717, 0, 0.383343, 0, 2.03394, 0, 0.235697, 0, 0.105704, 1.39342, 2.20861, 1.39342, 3.11626, 1.42456, 1.21457, 2.65121, 0.429739, 1.58279, 0.01464, 2.90035, 1.08013, 3.78602, 0.488737, 0.920775, 3.90024, 4.18602, 0, 2.01481, 3.42857, 1.15977, 1.66667, 1.16691, 1.00082, 0, 1.33333, 1.05408, 0.477449, 0.745455, 0.000627612, 0.0251165, 1.04152, 1.56418, 0.053842, 0.0440543, 0.042493, 0, 0.527126, 0.735354, 0.315466, 0, 0.539773, 1.06396, 1.19899, 4.17018, 0.142739, 0, 6.10649, 0.026791, 3.11325, 0, 5.8572, 2.65745e-005, 2.23631, 2.4, 0, 4.10429, 8.11637, 2.4, 3.11325, 7.10715, 1.03459, 1.27359, 0.985479, 0.055287, 1.35176, 0.147038, 0, 0, 0, 5.43819, 0.624192, 1.58667, 4.7346, 3.93429, 4.40957, 0.709387, 0, 0, 5.13733, 0.385371, 0.385371, 0, 5.5346, 1.58667, 0, 0, 0, 0, 0, 0.385371, 0, 2.6775, 4.79111, 0.927404, 4.79111, 4.79111, 0.66881, 0.0906863, 1.05302, 0, 1.05302, 1.05302, 0.290738, 2.16451, 0.00649567, 1.00043, 0.240561, 5.65547, 6.01791, 1.2, 0, 0, 0.166198, 3.46667, 6.45014, 0.00649567, 3.1786, 0, 0.709266, 2.61242, 2.16047, 0, 0.389582, 0, 0.264232, 0.0336248, 1.82043, 0, 2.16508, 0, 1.99498, 0, 0, 0.458355, 0, 3.67993, 1.43858, 1.43858, 1.43858, 3.82668, 2.49231, 1.43858, 0.136498, 3.98231, 1.37543, 1.32606, 1.4672, 0.0118304, 0.198269, 0.0782907, 0.0497199, 0.310419, 1.58246, 2.07645, 1.3114, 1.32, 2.40503, 0.210295, 2.21992, 0.583651, 0, 2.21992, 0.437684, 1.875, 0.0361118, 1.26389, 0.174087, 3.6, 0.00389837, 0.0853114, 1.96824, 0, 1.79535, 0.102563, 1.71975, 0, 0.0690341, 0.810955, 1.46602, 1.03459, 0, 1.64414, 4.23842, 1.64414, 0, 1.22449, 0.61494, 0, 2.13715, 1.11111, 0.30311, 0, 0.645286, 4.10519, 4.37838, 0, 0, 0.817306, 0.981262, 1.51432, 0.657897, 1.77261, 2.189, 1.2244, 0.861323, 0.160837, 0, 0.12062, 0, 1.25428, 0.884178, 0.884178, 0.0281048, 0.0639399, 0, 0.0281048, 0.368406, 0.180992, 0.00213887, 0.487179, 0, 0.264076, 0, 0.000205181, 0.115568, 0.414759, 0.396903, 0.0761351, 0.0761351, 0.255832, 0, 0.353366, 2.10116, 0.353366, 0.790197, 0.401076, 0.08971, 1.3834, 0.151493, 0, 0.151493, 0.147639, 0, 0.147639, 3, 0.347006, 0, 1.44242, 0, 0, 1.7728, 0.0604549, 0.266871, 0, 0.0604549, 3, 0, 0, 0, 0, 0.0604549, 1.03505, 0, 1.67904, 1.23338, 1.74871, 0.405706, 0.864223, 3.42857, 1.11439, 0, 0.0542118, 0.371137, 0.022796, 0.756452, 0, 0.67312, 0, 0, 0.0059613, 0, 0.0663204, 0.168954, 0.538282, 0.487383, 0, 0, 0.487383, 0.673643, 0.0965298, 0.278401, 0.112873, 0.112873, 0, 0.118521, 1.83258, 1.43493, 0, 1.66057, 3.34533, 4.55672, 1.24393, 0.707926, 0.707926, 0.90852, 1.13955, 0, 0.342676, 0.565872, 0.342676, 1.08118, 1.33333, 0.241274, 1.0708, 1.13414, 1.75034, 1.77623, 3.14975, 4.181, 0.547953, 1.00493, 0, 0, 0.651768, 0, 1.58899, 0.109984, 1.09536, 2.24116, 3.42101, 0, 1.80422, 1.54921, 1.81376, 1.01557, 1.481, 1.4904, 2.27561, 0, 0, 0, 2.38694, 0, 0, 2.75969, 0, 0.136042, 0, 1.95151, 0, 1.56131, 0.0639812, 0, 0, 1.71329, 2.45028, 1.23031, 0, 2.29744, 1.35363, 0.0587906, 2.09524, 1.29745, 2.09524, 0, 1.48023, 1.49272, 0.444444, 3.97496, 1.98008, 0, 3.34519, 0.606984, 0, 1.8854, 0, 2.68697, 1.13432, 2.17483, 0.787576, 1.25622, 0.894018, 1.75806, 0.864221, 0, 0.227715, 0.343808, 3.05241, 0.330997, 2.01472, 0.0219211, 0.462863, 0, 0.212208, 1.89701, 0.18944, 0.0185629, 0.0935214, 0.155637, 0.444444, 1.83061, 5.44561, 1.32999, 0.00287037, 0.800205, 0.053065, 6.66667, 0, 0.175305, 0.114444, 0, 0, 0.98811, 1.97207, 0, 0, 2.13123, 2.13123, 0, 0.306861, 1.14205, 0.61248, 1.55116, 6.11619, 0.543223, 1.49442, 1.34257, 0.304003, 0.481853, 0.298743, 0, 2, 0.097377, 0, 2.12518, 2.47402, 2.12645, 3.42372, 0.628306, 2.18408, 1.24625, 0, 0.428571, 0.166749, 0, 0.635861, 0, 1.82505, 0.379939, 0, 0.379939, 0, 0, 1.57524, 3.12414, 2.46958, 0, 2.15899, 0, 6.53658e-005, 0.936368, 4.8827, 3.77358, 3.1149, 0.216095, 2.81891, 0.38057, 0, 4.96851, 0, 0.881915, 0.235484, 1.159, 0, 0.881915, 1.25, 1.159, 0, 4.96851, 2.00504, 1.45208, 2.0463, 0.442618, 3.74306, 0, 0.148834, 0.79774, 6.07099, 0.506604, 0.534661, 0.761131, 1.6773, 0, 5.44829, 4.27605, 0, 4.13093, 4.13093, 0.254728, 0, 2.18513, 2.10126, 0, 1.44038, 2.65059, 1.65154, 0, 2.7893, 0.572126, 3.32786, 0.259828, 2.66667, 0.360868, 0, 0.324006, 1.39879, 0, 0, 1.8436, 0.674276, 0.882367, 4.66804, 4.24012, 3.44289, 0.343434, 0.350765, 0.410994, 0.411725, 0.4011, 0, 6.09586, 3.2309, 7.18099, 7.18099, 0.552164, 0, 0.278379, 1.02439, 3.70612, 3.70612, 0, 5.80813, 0.107699, 4.67001, 0.221412, 0.313348, 0.17782, 1.65401, 1.92071, 0.0533777, 1.69231, 1.81818, 0, 1.78276, 2.24416, 0, 2.24416, 2.26462, 1.89511, 0, 1.32, 0, 2.38348, 0, 0, 0, 2.38348, 2.01804, 0, 0, 2.01804, 0, 2.01804, 2.01804, 0, 1.291, 0.446958, 0, 0.936013, 2, 0.936013, 0, 0.473775, 1.14205, 0, 0.618441, 0, 0.698519, 0, 1.14205, 0, 0.693081, 2.06656, 1.50078, 0.542857, 1.58282, 0, 1.58282, 1.50078, 0, 1.34257, 0.946579, 0.732134, 1.11695, 0.618132, 0.505054, 0.502809, 0, 0.452107, 10.0412, 0, 0.57931, 2.56656, 0.29349, 1.23864, 0, 0, 0, 0.0821568, 1.69835, 0, 0.971082, 0.708117, 0, 0.30451, 0.208219, 0.129908, 0.147916, 0, 0.0811711, 3.00775, 0, 3.00775, 2.71908, 0.0393394, 2.6626, 2.86525, 3.14564, 0.129908, 0, 3.17701, 0.0920588, 0.97907, 0, 0, 0, 3.82509, 0, 0, 6.39479, 0.0494907, 0.20376, 0.332808, 0.0833775, 0.0763294, 0, 3.11881, 0.215335, 0.126978, 0.126978, 0, 0.126978, 0, 1.44823, 0.541289, 1.61538, 2.4822, 0.741286, 1.68599, 0.522427, 0.854878, 3.73333, 0.00139994, 0.682103, 2.43158, 0.285975, 1.03378, 1.03378, 1.76918, 0, 0.557253, 1.53235, 1.54921, 0.513617, 0, 0.378874, 0.169282, 0.169282, 0.169282, 0.363926, 0, 0, 0.402618, 1.88907, 3.00628, 1.53825, 0.830769, 0.542553, 1.63742, 0.484435, 1.50088, 1.63742, 0.521418, 0.645286, 0, 0.458949, 0.137424, 0.261072, 3.06614, 0, 0.107041, 0.107041, 0.827563, 0.75, 1.31568, 2.58642, 0.132563, 0.767631, 0, 0.985479, 0, 1.09072, 0, 1.19926, 1.19926, 0, 0, 0, 0, 3.18367, 3.8451, 0.590836, 0.748858, 0.26713, 0, 1.32734, 0.914872, 0, 0, 1.58898, 0.218155, 0.30883, 0.604455, 0.0181073, 0.914872, 1.02895, 0.914872, 0.396692, 0.00513575, 0.578369, 0.243208, 0.483871, 1.50734, 0.959561, 0.959561, 2.67473, 1.41751, 0.959561, 0.493157, 4.88158, 0.669941, 0.910332, 1.68338, 0.529192, 0.286523, 1.8845, 0.338021, 1.34977, 0.179267, 1.59635, 0, 0.828286, 1.59635, 0, 2.48366, 2.46496, 0.537144, 0.162664, 0.38992, 0.750348, 0, 0.750348, 0.990753, 1.44641, 0.401441, 1.16828, 0, 0.845162, 0.577778, 0.2653, 0.180074, 0.496382, 1.0681, 1.06957, 0.0521145, 0, 0.0809748, 0.0985506, 1.03561, 0.912268, 1.85406, 1.58309, 0.342857, 0.121585, 0, 0.382339, 0.077557, 1.86862, 0, 1.72312, 1.86862, 0, 0.215683, 0.00105588, 0.281701, 1.26064, 4.1528, 1.81226, 0.423891, 0, 2, 2.23245, 0, 5.48359, 0, 5.67882, 2.46183, 0.461524, 1.02433, 0, 0, 0, 0.154922, 3.25129, 3.25129, 3.74629, 0.464879, 2.24614, 0, 1.86127, 0, 0, 1.9563, 0, 1.04245, 0, 4.48938, 4.11148, 5.75314, 1.71829, 1.09703, 0, 2.41997e-005, 0.053842, 2.00282, 2.39104, 0.0288701, 0.87547, 0.773389, 0, 1.08811, 0.247503, 0.00261212, 2.00504, 0, 2.41639, 0.502542, 0.00690666, 3.33434, 0.0461349, 0.0123588, 0.701754, 0.702381, 0, 0, 0, 3.64583, 0, 0, 1.89433, 0, 1.40053, 0, 0, 0.926217, 7.07143, 3.13704, 0.0332215, 7.07143, 0, 0, 7.07143, 0, 2.10824, 0, 0, 0, 0, 0, 2.42308, 0, 3.13704, 7.07143, 0, 1.07305, 3.00941, 0, 0.487095, 2.24453, 0, 2.95906, 1.50741, 0, 0, 0.0532387, 1.50741, 1.50741, 0, 0, 0, 3.81712, 3.96807, 2.95906, 0, 1.50741, 3.64775, 3.94632, 3.07109, 1.33287, 0, 0, 0, 0.342857, 0, 3.07109, 0, 0, 3.07109, 0.75, 0, 2.78557, 1.40625, 1.00024, 0, 0.00125079, 0, 1.54412, 0, 0, 0.0445175, 0, 0, 0, 1.66434, 0, 0.970588, 0, 3.91093, 0, 0, 0, 0, 0.343163, 0, 0, 0, 0, 0, 0, 0, 0, 0, 3.27273, 0, 0, 0, 0, 0, 0, 0, 0, 0, 0, 0, 0, 1.80866, 0, 0, 0, 0, 0, 0.823053, 0, 0.0515504, 0, 0, 0, 2.99592, 4.71099, 0, 4, 0, 1.05094, 0.0857966, 0, 0.211674, 3.90819, 0, 5.38915, 1.08811, 1.08811, 5.38915, 0, 5.38915, 5.38915, 0, 0, 0.729808, 0.681523, 0, 3.03839, 0.135011, 1.71149, 3.39673, 3.39673, 0, 0, 2.70397, 1.10079, 0, 0.939511, 0, 0, 0, 1.0069, 0.00134273}
The best candidate(s) index:coordinate is/are : 704:704,  with a chi-2 statistic of = 12.1321 and with a p-value of 0.00049562.

 --- End of statistics on data --- 

