FastARG parameters are : 
 -The data file is                     : 400_2500(1.4_Ech_3).dat
 -The specified number of sequences is : 400
 -The specified size of sequences is   : 2500
 -The algorithm is                     : Manhattan
 -The coalescence mode is              : HAVE_ANCESTRAL_MATERIAL_IN_COMMON
 -The recombination mode is            : HAVE_ANCESTRAL_MATERIAL_ONLY
 -The random seed flag is              : true
 -The seed is                          : 5
 -The Rplot settings                   : true


             ***  Manhattan ARG summary *** 
Basic attributes.
 - Length of sequences   : 2500
 - Number of sequences   : 400
 - Total number of nodes : 9653
 - Total of lives nodes  : 1
 - Sum of mutant loci    : 0

Quantity of each type of event in the current state of the ARG.
 - Mutation event      : 1525
 - Coalescence event   : 2842
 - Recombination event : 2443

Quantity of possible events for each type.
 - Possible mutation event        : 0
 - Possible coalescence event     : 0
 - Number of position to be muted : 0

Manhattan specific attributes :
 - The seed is                        : 7439768774974632500
Constructed in 18 seconds.

--- Chi square association test on the data only ---
P-values vector for all loci.
{1.00251, 0, 3.02267, 8.41189, 8.41189, 23.6855, 0, 0, 1.00251, 0, 1.0101, 0, 0, 0.116223, 0, 2.70728, 0, 1.63432, 0, 9.20716, 5.56976, 0, 1.00251, 4.91307, 0, 0, 1.82278, 21.0069, 1.00251, 3.39394, 4.64015, 4.64015, 1.00251, 1.0101, 4.64015, 21.1928, 5.7619, 0.154116, 0.145402, 1.00251, 4.64015, 18.8482, 0, 0.113669, 0, 0, 16.5636, 5.7619, 1.00251, 0, 0, 10.5306, 0, 0, 1.23142, 0.0330278, 0, 0, 0.410256, 0, 7.86782, 1.00251, 7.86782, 0.209314, 7.86782, 2.29079, 1.00251, 3.02267, 0, 0, 1.00251, 0, 0, 16.8309, 2.04082, 1.90859, 3.02267, 2.70728, 0, 0, 0, 7.77056, 0, 4.29, 0, 0, 0, 1.00251, 3.02267, 0.17409, 0.510204, 1.00251, 0.0763504, 0, 1.00251, 9.20716, 0.57334, 0, 0, 0, 0.0204593, 6.08117, 0.0204593, 0, 0, 0, 0, 1.82278, 33.0814, 0.113669, 1.0101, 5.69492, 0, 2.66469, 1.82278, 17.7316, 0, 0, 1.15327, 1.00251, 3.20068, 0.516129, 0, 0, 0, 0.145402, 0, 0, 0, 0, 3.39394, 2.01005, 0, 4.42338, 0.335852, 6.79329, 0, 7.97477, 6.79329, 0, 0, 0, 0, 1.00251, 3.02024, 0, 0.216985, 0, 1.37457, 0, 0.0934798, 1.64103, 0, 3.01143, 5.93792, 0, 0, 0, 0, 6.28311, 0, 0.543976, 0, 0, 1.00251, 0, 1.0101, 0, 7.25011, 0, 0, 0, 10.9362, 1.88383, 10.9362, 11.6169, 3.39394, 1.00251, 0.497306, 0, 2.01005, 2.70728, 0, 0, 0.0297818, 0, 0, 0.410256, 0, 2.84172, 9.62035, 1.00251, 0, 1.00251, 0, 5.44444, 0, 0, 0, 0, 1.00251, 0, 0.5625, 10.3158, 0, 0, 0, 0, 0, 0, 1.0101, 0, 0.0692641, 0, 0, 0, 2.30631, 2.01005, 0, 1.00251, 1.00251, 1.0101, 0, 0, 1.0101, 0, 0, 3.39394, 3.01143, 0, 3.02267, 1.00251, 20.2546, 9.83103, 0, 0.82108, 0, 0, 0, 0.415177, 0, 0, 0.510204, 3.54904, 1.10823, 0, 4.64015, 2.01005, 0, 0, 4.17645, 0, 0.202532, 1.00251, 0, 0.202532, 0, 0, 0.202532, 1.00251, 17.0526, 4.4058, 12.3307, 0, 3.02267, 4.50139, 0, 0, 0.510204, 0.510204, 0, 0, 1.00251, 3.79797, 0, 0, 5.01961, 10.5306, 0, 0, 10.5306, 4.73723, 0.260417, 1.82278, 4.58051, 0, 0, 4.58051, 1.00251, 1.00251, 0, 21.16, 1.00251, 0, 20.2505, 0, 0.365714, 0, 0, 4.0404, 17.6471, 24.0394, 0, 22.6667, 5.03313, 3.84314, 2.01005, 0, 3.15289, 1.00251, 3.456, 0, 0.296077, 0, 0, 0, 0, 0, 0, 1.00251, 1.00251, 0, 0.543478, 0, 0, 1.00251, 0, 0, 0, 0, 0.510204, 13.3318, 14.5146, 1.7316, 0.202532, 0, 17.9791, 0.825696, 0, 0.60436, 0, 0, 0, 0, 2.01005, 2.84172, 20.2525, 0.202532, 0, 2.30631, 0, 0, 12.1905, 0, 0, 9.05797, 2.70728, 5.29159, 0, 0, 0.0692641, 1.00251, 10.7143, 10.7143, 0, 0, 0, 0.335852, 0, 0.066324, 0, 0.296077, 0, 0.145402, 0.296077, 0.296077, 0.0193433, 0, 0, 0, 0.296077, 0, 0, 0, 4.26372, 1.33161, 0, 2.01005, 1.53586, 0, 0, 7.52688, 0, 9.62035, 2.01005, 4.0404, 14.8194, 1.00251, 0.335852, 0, 1.00251, 2.01005, 0, 1.00251, 9.17344, 0, 0, 1.28353, 0, 8.34418, 7.52688, 2.5362, 1.53586, 0, 1.82278, 8.0252, 0, 0.581429, 0, 0, 1.00251, 0.335852, 0.296077, 1.33161, 0, 1.00251, 0.335852, 0, 0.145402, 1.00251, 1.00251, 11.0629, 0, 0, 0, 8.38095, 2.66469, 1.38249, 0, 4.0404, 4.8913, 0, 1.00251, 0.113669, 0, 20.0046, 0, 2.01005, 0, 1.0101, 0, 0.335852, 0, 0, 4.16667, 0.410256, 0.145402, 0, 2.90782, 4.0404, 0, 0, 0, 0.0144514, 0.884304, 1.00251, 1.00251, 2.83189, 1.64103, 0.335852, 12.7033, 10.2441, 0, 0, 5.52995, 0, 1.00251, 5.52995, 0, 0, 0, 2.01149, 6.25016, 1.00251, 2.01005, 0, 0, 0, 1.00251, 3.0299, 16.7844, 0.0962593, 1.53398, 1.00251, 16.7844, 16.7844, 0, 0.202532, 0, 0.372055, 0, 1.00251, 9.03912, 0, 0.335852, 0, 0.375, 14.4723, 7.57895, 3.63504, 0, 3.63504, 1.53586, 0, 0, 0, 0.335852, 2.01005, 0.113669, 0, 12.3596, 29.6978, 0.676819, 0, 0, 1.00251, 5.27528, 0, 5.27528, 1.00251, 0.0692641, 0, 0, 0, 0, 0.65774, 2.72563, 0, 0, 0, 0, 0, 1.00251, 0, 0.157625, 2.3013, 0.735294, 0.55291, 13.3318, 0, 1.00251, 2.83688, 4.17645, 0, 0, 0, 0, 0, 11.402, 2.01005, 0, 1.00251, 4.23114, 4.0404, 0, 0.335852, 0, 0, 1.00251, 0.335852, 0, 4.0404, 0.335852, 3.02267, 8.69565, 0, 2.01005, 0, 0, 5.06329, 0.260417, 1.00251, 0, 0, 17.7316, 0.651002, 0, 0.651002, 0, 0, 7.7961, 0, 0, 0, 26.9658, 0, 1.9536, 0, 0, 0.676819, 22.2656, 4.0404, 22.2656, 22.2656, 0, 2.01005, 1.30862, 7.85965, 20.4819, 0.0934798, 0.676819, 0, 1.00251, 1.00251, 0, 19.6614, 9.71713, 0, 2.07641, 1.00251, 3.36134, 0, 22.4416, 21.9512, 2.01005, 14.1225, 0, 1.56681, 0, 1.0101, 4.37897, 0, 0, 0, 0, 15.4489, 0, 1.00251, 0.202532, 1.0101, 1.00251, 10.0638, 0.202532, 10.0638, 0, 0, 0.510204, 5.06329, 0.202532, 2.04082, 0, 4.73723, 0, 1.0101, 18.5606, 11.3677, 0, 0, 0, 0, 0, 0, 0, 0, 1.00251, 0, 0, 1.0101, 16.5383, 0, 2.04082, 0, 4.0404, 16.5383, 26.8456, 0, 21.8905, 0, 8.76783, 4.0404, 1.7316, 0, 9.76003, 0, 1.00251, 16.7304, 16.7304, 18.2336, 5.81734, 0, 0, 1.0101, 0, 0, 0.202532, 16.0178, 0, 1.04167, 0.202532, 0, 14.0359, 8.18917, 0, 0, 0, 1.00251, 2.01005, 1.00251, 0, 1.00251, 0, 0, 1.00251, 0, 0, 6.98293, 0, 1.00251, 0, 1.00251, 6.09137, 1.00251, 0, 1.00251, 0, 0, 7.67045, 6.06897, 7.1773, 0, 0, 0, 0, 7.67045, 0, 2.70728, 0, 13.7619, 0, 0, 12.21, 0.202532, 0, 0, 0, 0, 1.64103, 0, 1.00251, 0.202532, 2.01005, 0, 0, 1.15718, 2.01005, 0, 8.68794, 12.25, 3.89585, 0, 0, 0, 1.82173, 2.01005, 0, 0, 0, 0, 18.3156, 0, 1.82173, 0, 0, 1.00251, 0, 0, 0, 0, 8.11282, 0, 0, 0.202532, 0, 4.07086, 0.70922, 0, 1.04167, 0, 43.2133, 1.0101, 0.202532, 0.202532, 2.01005, 0, 1.71344, 0, 0, 0, 0, 0, 3.01029, 8.38954, 0, 0.202532, 0, 0, 0.841318, 0, 0, 1.00251, 0, 0, 0, 0, 1.0101, 1.00251, 0, 1.0101, 0, 0.040197, 1.00251, 1.00251, 1.18431, 0, 0, 0.335852, 1.00251, 0, 0, 62.4277, 1.00251, 0, 0, 0, 0, 0, 1.00251, 0.676819, 0, 0.202532, 0, 0.497306, 0, 0, 1.00251, 0, 0.55291, 0, 0, 0.260417, 1.00251, 0, 1.00251, 1.0101, 22.4416, 1.18431, 0, 22.4416, 22.4416, 0, 22.4416, 1.00251, 22.4416, 18.7784, 18.7784, 0.145402, 2.84172, 18.7784, 1.00251, 0, 3.73659, 0, 1.00251, 0, 0, 26.9103, 0, 0, 1.61836, 0, 0, 0, 2.09424, 0, 0, 1.00251, 0, 2.09424, 0.0934798, 1.00251, 0.145402, 2.09424, 0.335852, 0, 0, 0, 1.00251, 0, 2.30631, 0, 0, 0, 5.58182, 1.0101, 0, 0, 0, 0, 0, 4.59184, 0, 4.43262, 1.00251, 0, 0.811644, 1.00251, 0, 0, 0, 2.01005, 1.00251, 18.1488, 0, 0, 0, 0, 12.7289, 1.00251, 5.6338, 0, 5.6338, 0, 0, 20.0173, 20.0173, 0, 3.36842, 2.66469, 19.1676, 0, 1.00251, 0, 1.00251, 0, 1.00251, 0, 0, 0.113669, 0, 0.335852, 1.00251, 0, 0, 0, 0.145402, 0.335852, 0, 1.69513, 2.27049, 2.27049, 24.8517, 1.00251, 1.82278, 0, 0, 0, 0, 0, 0, 0, 0.415177, 1.00251, 3.02267, 1.00251, 0, 0, 0, 0, 3.02267, 23.2062, 1.00251, 1.00251, 1.00251, 0.415177, 1.00251, 42.2595, 1.00251, 0, 1.00251, 0, 1.00251, 1.00251, 1.18431, 0, 1.00251, 0, 0, 1.00251, 0, 0, 0, 0, 0, 0, 0, 110.783, 113.666, 20.7025, 1.00251, 0, 19.784, 0, 0, 113.666, 0, 0, 0, 0, 2.01005, 0, 1.00251, 0, 0, 113.666, 3.01143, 0, 0, 0, 0, 0, 1.25644, 53.4517, 21.0526, 0, 0, 4.58051, 0, 0, 0, 1.0101, 1.00251, 4.0745, 0, 25.2753, 0.145402, 0, 1.82278, 5.06329, 0, 0, 14.0351, 8.38095, 18.8482, 0, 0, 3.43774, 0, 3.43774, 0, 0.335852, 0.884304, 1.00251, 0, 0, 0, 0, 0.841318, 2.01005, 0, 25.0633, 0.623377, 14.8209, 5.69933, 0, 0, 0, 0, 1.0101, 4.58051, 0.0934798, 10.5174, 1.37457, 0, 1.00251, 68.7924, 0, 0, 0, 0, 1.00251, 68.7924, 0, 1.37457, 0.343643, 0, 0, 0.216985, 0.343643, 0.0934798, 1.18431, 0.202532, 7.43126, 0, 0, 0, 0, 0, 2.3013, 0, 0, 2.01005, 0, 0, 16.3829, 4.16667, 36.3371, 30.3445, 2.09067, 2.01005, 0.145402, 0, 0, 0.543478, 1.00251, 9.71757, 0, 12.3092, 0, 2.70728, 12.3092, 0, 0, 0, 1.00251, 0, 0, 0, 0.841318, 3.2957, 0, 3.2957, 0, 10.7608, 0, 0.0614345, 2.34375, 0, 1.00251, 0, 0, 0, 19.1063, 0.202532, 0, 0, 0, 0, 1.00251, 1.00251, 3.02267, 17.6471, 2.01005, 0, 0.202532, 18.5889, 1.82278, 28.4031, 0, 3.02267, 1.30862, 0, 0, 0, 0, 9.89011, 1.00251, 0, 0, 1.00251, 9.89011, 1.04167, 1.00251, 2.01005, 0, 0, 0, 0, 1.33161, 1.00251, 18.8991, 13.0788, 4.16667, 0, 3.55652, 1.00251, 1.00251, 3.01029, 1.82278, 1.00251, 0, 0, 2.70728, 0, 2.70728, 4, 0, 3.02267, 0, 1.00251, 65.1163, 1.00251, 1.00251, 0.930774, 0, 6.6324, 1.0101, 1.00251, 0.335852, 0, 2.05722, 0.335852, 3.02267, 2.05722, 0, 0, 1.00251, 2.61296, 27.1731, 0, 1.82278, 0, 0, 0, 1.00251, 13.579, 24.5233, 0, 1.00251, 7.14286, 0, 0, 1.04167, 0, 0.145402, 0, 0, 0, 0, 8.06253, 0.930774, 1.00251, 0.497306, 4.64525, 0.040404, 1.00251, 0, 0.510204, 0, 53.3554, 53.3554, 53.3554, 53.3554, 25.1556, 0, 14.0457, 41.3343, 49.1965, 0, 0.842105, 0, 8.85846, 31.104, 0, 1.82278, 0, 12.789, 1.00251, 49.1965, 0.929454, 1.00251, 0, 0, 1.82278, 0, 0, 0, 1.82278, 0.55291, 2.01005, 3.89585, 0, 9.42134, 0, 0, 0, 2.46262, 43.2133, 1.00251, 0, 0, 3.29143, 0, 0, 42.0509, 0, 41.989, 0, 0, 0, 1.00251, 43.2133, 0, 0.0100566, 0.0100566, 0.676819, 6.92641, 0.272101, 0, 1.00251, 2.62726, 2.70728, 0, 0, 1.25644, 1.00251, 0, 13.2655, 0, 5.52995, 1.00251, 0, 2.70728, 7.42445, 7.42445, 58.5135, 0, 0, 0, 2.70728, 0, 0, 14.9003, 0, 0, 6.2889, 9.40321, 2.01005, 0, 0.160256, 0.145402, 2.26041, 17.7316, 1.00251, 0.335852, 0, 19.6416, 1.7316, 19.6416, 0, 29.2641, 3.89585, 0, 0, 79.7829, 1.00251, 79.7829, 0.335852, 78.1975, 0, 0, 0, 9.9214, 9.9214, 0, 14.9184, 0, 1.53586, 0, 4.07086, 0, 0, 22.6348, 0, 0, 6.09137, 1.7316, 11.2941, 0, 0, 0, 0, 0, 0, 16.4384, 0, 1.00251, 0, 21.726, 2.83688, 0, 0, 0, 3.6036, 0, 4.23161, 23.2679, 24.3269, 24.3269, 24.3269, 4.07086, 1.00251, 1.00251, 2.01005, 1.30862, 0, 0, 0, 0, 0, 0.335852, 1.00251, 0, 0, 0, 0, 0, 3.6036, 27.3712, 0, 0, 0, 0, 1.00251, 39.7387, 26.9317, 3.67722, 0.510204, 0, 0, 0, 4.47338, 53.0196, 1.64103, 0, 0, 0, 43.2133, 0.296077, 0, 0, 0.113669, 0.465252, 0.676819, 6.47214, 0, 0, 0, 0, 2.36742, 0, 0.0403266, 0, 0, 0, 2.01005, 0, 0, 4.73723, 0, 11.2853, 1.00251, 1.0101, 0, 0, 10.3697, 0.250006, 0, 15.8192, 14.6626, 0, 6.06897, 0, 2.85205, 14.681, 29.1662, 0, 11.1111, 0, 0, 0, 0, 6.09223, 1.0101, 6.13902, 1.00251, 0, 1.00251, 2.01005, 0, 21.6415, 0, 0, 0, 5.61039, 0, 0, 0, 0, 1.00251, 1.59574, 0, 3.29143, 0, 0, 27.0508, 0, 0.465252, 9.42761, 0, 0.335852, 0, 5.92505, 0, 9.33831, 9.33831, 0, 2.01005, 9.33831, 0, 1.00251, 0, 1.00251, 0, 0, 0, 6.37306, 0, 0, 0, 0, 0.335852, 0, 0, 0.145402, 1.0101, 0, 0, 0, 3.78865, 1.0101, 0, 2.01005, 1.98768, 0, 0, 0, 0, 0, 12.7604, 1.00251, 0, 0, 0, 0, 1.00251, 1.00251, 10.3824, 0, 0.0934798, 1.82278, 2.63172, 0.335852, 0, 0, 0, 2.63172, 1.00251, 2.63172, 21.3319, 0, 0, 0, 6.09137, 3.02267, 20.5172, 29.0818, 3.36842, 0.676819, 11.9601, 0, 1.82278, 2.70728, 0, 0, 1.00251, 6.09137, 1.98768, 4.48, 0, 1.00251, 0, 0, 0.0934798, 6.09137, 25.3271, 20.1026, 20.1026, 0, 0.715564, 0, 0, 1.89474, 1.15327, 5.74061, 1.00251, 1.00251, 0.202532, 0, 0, 0, 0, 0, 0.335852, 0, 2.89462, 0, 0, 2.01005, 0, 4.0404, 0, 4.86232, 0.0426667, 4.86232, 0, 0, 0, 0, 4.86232, 0, 3.01029, 3.63504, 1.1489, 0, 2.91738, 0, 3.63504, 5.44444, 4.73723, 0, 0, 5.29159, 0, 0, 0.625179, 0.70922, 0, 0.415177, 0, 0.510204, 0, 0, 0, 0, 2.01005, 0, 2.70728, 1.00251, 1, 0, 2.9813, 0, 0.715564, 0, 2.70728, 0.202532, 1.00251, 1.62443, 0, 0.145402, 1.00251, 2.70728, 0, 0.192331, 0, 1.00251, 0, 0, 0, 0, 0, 17.8977, 7.43126, 0, 6.51042, 0, 28.2051, 0, 0, 6.3925, 0, 6.3925, 12.5744, 0.335852, 12.4834, 0, 19.0476, 0, 0, 2.70728, 0, 0, 10.7084, 10.7084, 0.335852, 2.01005, 0, 16.4541, 0, 0, 3.02267, 1.00251, 10.0133, 0, 0, 2.01005, 0, 1.00251, 0.576577, 0, 0, 10.3697, 10.3697, 0, 0, 1.0101, 0, 11.8883, 0, 1.00251, 0, 19.7353, 1.00251, 0, 5.06329, 1.22692, 2.01005, 0.0614345, 5.06329, 10.5447, 13.7068, 2.01005, 26.8125, 26.8125, 1.00251, 0, 0, 0, 0, 4.0404, 5.17742, 5.17742, 11.6757, 0, 5.17742, 1.07863, 0, 2.70728, 11.6757, 0.507365, 6.51042, 2.6162, 0, 2.01005, 8.64537, 0, 5.58182, 0, 6.09137, 0, 0, 23.4097, 1.04167, 2.34375, 1.82278, 0, 0, 3.63504, 0, 0, 0, 0, 0.0614345, 0.510204, 1.00251, 0, 2.01005, 3.01143, 5.05646, 0, 0.841318, 0, 0, 0, 22.2362, 0, 9.13637, 9.13637, 9.13637, 2.01005, 4.73723, 0, 1.30862, 0, 3.02267, 6.09137, 0, 0, 1.00251, 4.0404, 0, 2.01005, 0, 0, 0.510204, 2.01005, 0, 0, 4.0404, 1.04167, 2.01005, 0, 0, 0, 0, 1.00251, 1.37457, 0.676819, 2.01005, 1.98768, 0.676819, 1.9536, 0, 6.17842, 0, 9.61845, 4.59184, 2.84172, 0.335852, 0, 1.00251, 0, 0, 0, 0, 2.01005, 4.73723, 0, 0, 0, 0.930774, 1.00251, 0.335852, 1.00251, 0, 0, 6.38298, 0, 1.00251, 6.09137, 5.6338, 0, 0, 0, 0.202532, 0, 6.5641, 1.00251, 2.01005, 0.988558, 50.3119, 0, 1.82278, 0, 1.00251, 10.1869, 0, 0.0149393, 4.73723, 3.02267, 0.260417, 2.66469, 0, 0, 1.00251, 2.5362, 8.22887, 0, 8.22887, 4.18726, 0.99295, 51.8909, 1.82278, 7.40571, 0, 1.0101, 0, 0.260417, 0, 9.59165, 1.00251, 0, 2.01005, 0, 0, 0, 4.0404, 0, 0, 0, 1.00251, 0, 0, 1.00251, 0, 0, 0, 6.38298, 9.54263, 0, 9.20716, 0.202532, 2.46262, 0, 0, 0, 0.335852, 1.00251, 0, 7.37127, 0, 0.268882, 7.91919, 1.00251, 0.900115, 0.510204, 9.05797, 3.2413, 0.930774, 0.483582, 1.22102, 1.44709, 6.8428, 6.8428, 0.113669, 0, 0, 0, 2.70728, 0.510204, 1.00251, 0.510204, 16.1616, 3.02267, 2.70728, 2.01005, 0, 0, 2.83242, 2.04082, 1.0101, 1.00251, 0, 0, 1.00251, 0, 0, 0, 0.335852, 26.0419, 0, 26.0419, 0, 2.01005, 26.0419, 26.0419, 9.20716, 1.00251, 26.0419, 1.00251, 0, 2.01005, 0, 1.00251, 1.00251, 0, 0, 0, 1.00251, 6.00198, 20.7636, 0, 0, 0, 0, 1.7316, 10.3728, 10.3728, 10.3728, 1.82278, 1.89474, 0, 53.6285, 2.01005, 0, 8.57433, 1.00251, 0, 0.202532, 0, 0, 46.9526, 9.47312, 0.202532, 0, 0, 0.365714, 0, 0, 0, 4.85749, 1.15718, 9.70769, 9.00298, 9.8264, 1.00251, 14.0625, 0, 0.715564, 1.18136, 0, 0.510204, 1.00251, 0, 9.65251, 0, 0, 0, 0, 0, 4.59184, 0, 0, 0, 15.5844, 0.510204, 2.04082, 0, 0, 0.858181, 1.00251, 1.00251, 2.01005, 0, 0, 0, 0, 1.00251, 0, 0, 0, 0, 0, 0, 0, 0, 0, 0, 1.00251, 1.71344, 0.335852, 0, 4, 0, 0.497306, 0, 1.00251, 0.510204, 56.25, 0.113669, 1.00251, 2.83688, 0.510204, 4.31831, 0, 0, 0.0914286, 0.0914286, 0, 2.01005, 0.715564, 3.01143, 0.437848, 0, 4.23821, 0, 4.1961, 3.18302, 3.18302, 1.94618, 0.357462, 0, 0.839077, 0, 2.6162, 33.4211, 29.7619, 0, 0.335852, 0, 14.9647, 0, 5.58182, 0, 3.10448, 4.81, 1.64103, 0, 1.00251, 2.01005, 10.1598, 2.34375, 0, 0.510204, 32.6738, 1.00251, 0, 6.71234, 0, 1.00251, 13.7346, 0, 0, 24.177, 0.296077, 27.9389, 0, 2.63172, 11.7911, 4.0404, 0, 0.802508, 2.54678, 1.30862, 0, 0.610992, 0, 2.01005, 0, 0, 8.86431, 0, 0, 0.202532, 0.2818, 2.01005, 0.36294, 0, 0, 7.57895, 0, 0.4884, 0.160016, 0, 0, 0, 0.202532, 0, 1.24823, 0, 4.0404, 0, 15.2125, 4.0404, 1.00251, 0, 2.09424, 0, 0, 1.00251, 13.8943, 2.01005, 2.01005, 24.1109, 2.04082, 7.57895, 7.57895, 0, 0, 2.34375, 2.26041, 3.375, 2.26041, 7.14286, 1.00251, 0, 0, 0, 0, 0, 0, 0, 0, 0, 0, 0, 1.00251, 0, 0, 0, 0, 0, 0, 0, 0, 0, 6.93642, 1.00251, 0.202532, 0, 3.02267, 21.3894, 0, 0, 0.672551, 0.672551, 1.00251, 1.00251, 0, 0.675747, 1.00251, 5.00511, 0, 28.7855, 0, 10.9025, 2.01005, 10.9025, 0, 2.01005, 5.00511, 1.00251, 0.160064, 3.78865, 1.82278, 0, 8.76783, 0, 1.00251, 0, 1.00251, 0.0934798, 2.19953, 0, 0, 1.62822, 1.00251, 1.02302, 0, 0.55291, 0, 1.30862, 1.00251, 0, 1.00251, 0, 0, 1.00251, 7.57186, 0, 1.00251, 1.00251, 4.59184, 0, 0, 0, 4.5927, 0, 0, 3.45762, 0, 4.80588, 0, 0, 3.45762, 1.30862, 0.410256, 0, 0, 24.4622, 0, 0, 0, 1.00251, 0, 0, 0, 0.410256, 0, 0.0152028, 0, 0.410256, 1.0101, 0.410256, 1.0101, 0, 0, 0, 5.06329, 0.410256, 3.02267, 1.00251, 0, 0, 0.676819, 0, 0, 0, 0.31173, 1.30862, 0.210554, 0, 0, 0.0502576, 0, 0, 0, 2.01005, 0, 0, 0, 0, 0.0210804, 0.0210804, 1.04167, 13.4444, 13.4444, 0, 13.4444, 1.53586, 1.53586, 0, 0, 1.82278, 0.410256, 2.01005, 4.0404, 0, 0, 7.1773, 0, 2.01005, 0, 0, 1.00251, 0, 8.76783, 8.37696, 3.02267, 0, 0, 8.76783, 9.76003, 6.09137, 1.30272, 8.37696, 8.37696, 1.21148, 0, 1.0101, 1.15327, 5.30605, 1.00251, 0.410256, 1.00251, 8.37696, 0, 11.308, 21.0526, 0.769601, 0, 0, 0, 0, 0.446429, 2.01005, 0, 20.1083, 0, 0, 0, 0, 3.02267, 0.343643, 1.90876, 1.00251, 1.00251, 0.343643, 2.04082, 0, 0, 11.7752, 1.00251, 0, 0, 0.343643, 0, 0, 0, 0.497306, 0, 0.0146891, 3.63504, 2.01005, 12.7033, 0, 0, 1.00251, 0.237002, 0, 0, 0.343643, 3.02267, 0.0613591, 0, 0.343643, 0, 0.343643, 0, 0, 0, 1.00251, 0, 1.53586, 2.01005, 0.210526, 0, 3.02267, 2.01005, 0, 0.202532, 0, 0, 0, 0, 0.497306, 1.00251, 0.497306, 0.497306, 0, 1.0101, 1.7316, 1.00251, 0.0677507, 0, 1.02302, 0.12609, 0, 1.7316, 0, 11.308, 0, 3.02267, 1.00251, 8.57548, 0, 2.33305, 0, 0, 1.7316, 1.00251, 1.00251, 0, 0, 8.36509, 1.7316, 3.02267, 22.8548, 1.18431, 1.6572, 1.6572, 1.6572, 1.0101, 2.45776, 1.0101, 1.82278, 0, 3.02267, 0, 0}
The best candidate index:coordinate(s) is/are : 1007:10422 1014:10489 1024:10558,  with a chi-2 statistic of = 113.666 and with a p-value of 0.

--- Chi-2 association test on the ARG with the maximum value. ---
Maximum chi-2 vector with the ARG for all loci.
{2, 0, 10.5882, 8.41189, 8.41189, 23.6855, 0, 0, 5, 0, 6.22222, 0, 0, 0.295017, 0, 2.77934, 0.307586, 9.96639, 0, 12, 9.47561, 2.7078, 1.29808, 5.79471, 0, 0, 5.0344, 21.0069, 1.01704, 11.0133, 4.64015, 12.0039, 2.94643, 1.70526, 4.64015, 21.1928, 7.7533, 4.5355, 0.449046, 1.41818, 4.64015, 28.5755, 0, 2.63795, 0, 0, 18.4385, 5.7619, 1.3805, 0, 2.4, 10.5306, 0, 0, 1.23142, 6.36917, 0, 0.159599, 0.410256, 0, 7.86782, 1.31429, 7.86782, 6.74397, 7.86782, 2.29079, 2.41379, 11.8827, 0, 0, 1.57895, 0, 0, 17.8287, 3.25394, 1.90859, 3.24321, 2.70728, 0, 0, 0, 8.15497, 0, 4.29, 0, 0, 0, 4.98448, 4.01897, 0.17409, 0.510204, 1.01184, 0.0763504, 0.661552, 1.10222, 9.35627, 0.57334, 0, 0, 0, 0.0204593, 18.4888, 0.0204593, 0, 0.00034188, 0, 0, 3.73333, 40.2893, 0.148148, 1.125, 6.37241, 0, 2.69388, 3.73333, 18.9311, 0, 0, 2.7668, 1.00251, 7.5318, 3.65747, 0.166317, 0, 0, 2.05714, 0, 0, 0, 0, 4.48818, 2.2353, 1.33333, 4.66502, 3, 6.79329, 0, 7.97477, 6.79329, 0.75, 0, 0, 0.75, 1.00251, 3.02024, 0, 3.06235, 0, 1.63528, 0, 0.885413, 5.00083, 0, 13.4869, 5.93792, 0.833333, 0, 0, 0, 6.28311, 0, 0.543976, 0, 0, 2, 0.135746, 2.43747, 0, 8.37751, 0, 0, 0, 10.9362, 7.47593, 10.9362, 11.6169, 4.60873, 1.32239, 3.97916, 4.11321, 3.45167, 2.70728, 0, 0.642483, 0.339187, 0, 0, 1.0329, 0, 6.51976, 13.7151, 1.36105, 0.349091, 1.36105, 0, 5.44444, 0, 0, 0, 0, 1.37588, 0, 7.02684, 12.4165, 0, 0, 0, 0.938298, 0, 0, 2, 0, 2.95556, 0, 0, 0, 3.05329, 3, 0, 1.33333, 1.14286, 1.22866, 0, 0, 19.0511, 4.11321, 0, 4.88003, 3.8326, 0, 4.21875, 1.11111, 21.784, 9.83103, 0, 3.25694, 0.104167, 0, 0, 2.91639, 0, 0, 0.948512, 3.54904, 4.42727, 0, 4.64015, 2.20985, 0, 0, 9.94298, 0, 0.606585, 1.52727, 0, 0.606585, 0, 0, 0.606585, 1.81406, 20.8836, 4.4058, 16.0528, 0, 3.70759, 12.5492, 0, 0, 1.94464, 1.94464, 0, 0, 1.4595, 3.79797, 0, 0, 5.01961, 11.5519, 0, 0, 11.5519, 6.20928, 0.260417, 2.46082, 5.32129, 0, 0, 5.32129, 1.00251, 1.00251, 0, 21.1797, 1.00251, 0, 20.2505, 0, 7.06006, 0, 0, 11.2145, 17.6471, 24.0394, 0, 22.6667, 5.03313, 3.84314, 6.85714, 0, 3.15289, 1.05882, 3.456, 0, 1.71429, 0, 0, 0, 0, 0.138889, 0, 1.15387, 2.47301, 0, 1.73337, 0, 0, 3.27273, 0, 0, 0, 0, 2.6907, 15.0671, 16.2846, 5.83766, 1.71024, 5.56751, 20.0621, 0.825696, 0, 8.1449, 0, 0, 0, 0, 6.85714, 3.17947, 20.2525, 0.702412, 0, 2.30631, 0, 0, 12.1905, 0, 0, 9.05797, 6.1678, 5.7428, 0, 0, 2.25326, 2, 10.7143, 10.7143, 0, 0, 0, 0.9, 4.46138, 7.80266, 0, 2.08447, 0, 1.75933, 0.296077, 0, 4.96682, 0, 0, 0, 3.80934, 0, 0, 0, 9.10237, 4.37991, 0, 2.32359, 1.53586, 0, 0, 7.52688, 0, 12.9568, 6.95814, 4.0404, 16.5032, 2, 1.74222, 0, 1.00251, 2.2213, 0, 2.4375, 9.17344, 0, 0, 1.28353, 0, 8.34418, 13.5153, 2.5362, 1.53586, 0, 1.82278, 8.0252, 0, 1.14896, 0, 0, 1.47804, 1.54611, 0.596104, 2.16292, 0, 1.00251, 0.815407, 0, 0.494949, 1.25757, 1.00251, 11.0629, 0, 0, 0, 8.38095, 2.66469, 1.38249, 0, 6.73959, 4.8913, 0, 1.00251, 2.5679, 0, 20.0046, 0.201175, 6.54545, 0, 3.75, 0, 0.335852, 0, 0, 8.95827, 1.58749, 8.08163, 0, 2.90782, 4.91664, 0, 0, 0, 0.0144514, 0.884304, 2, 1.29226, 4.64222, 4.92704, 1.33333, 12.7033, 10.2441, 0, 0, 5.52995, 0, 2.25, 5.52995, 0, 0, 0, 4.8018, 6.25016, 1.19846, 2.01005, 0.0767045, 0, 0, 2, 3.0299, 16.7844, 3.63858, 6.21092, 3, 16.7844, 16.7844, 0, 0.298084, 0.75, 1.86131, 0, 2, 9.03912, 0, 5.10417, 0, 1.61991, 14.4723, 25.7696, 4.29108, 0, 4.29108, 6.74095, 0.685714, 0, 0, 2.35926, 2.2388, 0.148472, 0.0767045, 12.3596, 29.6978, 4.70113, 2.8548, 0, 3.9375, 5.27528, 0.685714, 5.27528, 1.23892, 4.82479, 0, 0, 0, 0, 2.17921, 4.49653, 0, 0, 0, 0, 0, 1.20356, 0, 0.909816, 2.3013, 3.14592, 2.22353, 18.8633, 0, 1.17142, 2.83688, 4.17645, 0, 0.0463963, 0.705882, 0.398864, 0, 22.7891, 2.02018, 0, 3, 4.29205, 4.06081, 0, 2.53212, 0, 0, 1.25632, 0.343042, 0, 4.06081, 0.34093, 3.4816, 11.0069, 0, 9.39474, 0, 0, 5.24752, 0.320584, 3, 0, 0, 17.9362, 0.651002, 0, 0.651002, 0, 0, 12.8686, 0, 0, 0, 26.9658, 0, 1.9536, 0.78946, 0, 7.46667, 24.1671, 4.0404, 22.2656, 22.2656, 0, 4.82896, 3.21429, 7.85965, 45.3671, 7.82454, 6.0248, 0, 1.32576, 1.3528, 2.09, 40.6394, 9.71713, 0, 2.07641, 2.98574, 3.36134, 0, 22.4416, 54.1256, 2.82047, 14.1225, 0, 1.56681, 0, 2, 4.37897, 0, 0, 0, 2.5, 15.4489, 0, 2.13655, 2.1, 32.1951, 2, 18.654, 2.1, 18.654, 0, 0, 2.4128, 11.6642, 2.1, 7.85009, 0, 4.73723, 0, 3.72631, 20.0104, 11.3677, 0, 0, 0, 0, 0, 0, 0, 0, 1.00251, 0, 0, 3, 19.0711, 2.1, 8.57143, 0, 4.21297, 19.0711, 26.8456, 0.695652, 21.8905, 0, 31.5647, 5.24513, 1.87357, 1.33333, 33.3553, 0, 1.11008, 16.7304, 16.7304, 18.2336, 8.44815, 0, 0, 1.84872, 0, 0, 1.24983, 16.0178, 0, 3.98127, 0.6, 0, 14.0359, 8.18917, 0, 0, 2.1, 1.97304, 2.01005, 1.36395, 0, 1.09091, 0, 1.33333, 4, 0, 0, 12.5963, 0, 1.81856, 0, 1.00251, 10.9824, 1.00251, 0.415834, 1.19658, 0, 0, 12.5929, 10.2686, 7.1773, 0, 0, 0, 0, 10.396, 0, 2.70728, 0, 13.7619, 0, 0, 12.21, 0.873383, 0, 0, 0, 0.47619, 2.41868, 0, 1.18362, 0.202532, 6.07251, 0.348435, 0, 1.15718, 7, 0, 17.0003, 21.7948, 4.85089, 0, 0, 0, 2.2409, 4.09091, 0, 0, 0, 0, 18.3156, 0, 1.82173, 0, 0, 4.44444, 0.47619, 0, 0, 0, 8.11282, 0, 0, 0.6, 0, 4.07086, 3.6436, 0, 6.98792, 0, 45.1317, 1.99062, 0.6, 0.793638, 2.01005, 0, 1.71344, 0, 0, 0, 0, 0.699506, 3.01029, 8.38954, 1.5, 0.6, 0, 0, 1.36023, 0, 0, 1.00251, 0, 0, 0, 0, 2.55266, 1.32, 0, 2.55266, 0, 0.040197, 1.26389, 4, 6.51849, 0, 0, 4.44444, 1.37143, 0, 0, 72, 1.02423, 0, 0, 0, 0, 0, 1.02423, 0.800933, 0, 0.202532, 0, 0.497306, 0, 0, 5.96491, 0, 0.725692, 0, 0, 5.2026, 5.96491, 0, 1.37143, 2.46733, 22.4416, 1.34302, 0, 22.4416, 22.4416, 0, 22.4416, 5, 22.4416, 18.7784, 18.7784, 0.685714, 3.04458, 18.7784, 2, 0, 4.22334, 0, 1.0328, 0, 0, 26.9103, 0, 1.96752, 1.74411, 0, 0, 0, 2.09424, 0, 1.33333, 2.4, 0, 2.09424, 2.36299, 3, 0.379821, 2.09424, 1.40556, 0, 0, 3.42974, 2, 0, 2.70184, 0, 0, 0, 5.58182, 4.16372, 0, 0, 0, 0, 0, 10.1297, 0, 12.2547, 2, 0, 1.77169, 5.29412, 0, 0, 0, 2.06037, 1.10468, 18.1488, 0, 0.399186, 0, 0, 12.7289, 2, 5.6338, 0, 5.6338, 0, 0, 20.0173, 20.0173, 0, 16.9586, 2.66469, 19.1676, 0, 2.32239, 0, 2.32239, 0, 2.32239, 0, 0, 1.94444, 0, 0.586268, 2.32239, 0, 0, 0, 1.85247, 2.22222, 0, 1.69513, 2.27049, 2.27049, 24.8517, 3.77841, 2.4, 0, 0, 0, 0, 1.00309, 0, 0, 1.20404, 2.36715, 5.6875, 3.45312, 0, 0, 0, 0, 5.6875, 23.2062, 1.00251, 6.55462, 6.55462, 1.46672, 6.55462, 42.2595, 1.11111, 0, 1.11111, 0, 1.00251, 1.11111, 6.83156, 0, 1.00251, 0, 0, 1.11111, 0, 0, 0, 0, 0, 0, 0.823401, 110.783, 113.666, 20.7025, 1.2, 0, 19.784, 0, 0, 113.666, 0, 0, 0, 0, 4.08885, 0, 2.45614, 0, 0, 113.666, 3.01143, 0, 0, 0, 0.801818, 0, 1.25644, 53.4517, 21.0526, 0, 0, 16.2121, 0, 0, 0, 38.9301, 3, 63.498, 0, 25.2753, 2.05714, 2.47055, 1.82278, 5.06329, 0, 0, 14.0351, 8.38095, 18.8482, 0, 0, 56.9174, 0, 56.9174, 0, 3.70748, 6.60585, 1.10954, 0, 0, 0, 0, 2.40266, 3.7107, 0, 25.0633, 2.71415, 20.8389, 5.69933, 0, 0, 0, 0, 3.12235, 12.7878, 1.0349, 33.1171, 1.37457, 0, 1.53758, 68.7924, 0, 0, 0, 0, 3.36, 68.7924, 0, 1.37457, 1.2963, 0, 0, 3.28267, 1.2963, 2.10335, 3.07191, 1.23691, 14.904, 0, 0, 0, 1.68067, 0, 6.49375, 0.62978, 0, 2.68126, 0, 0, 16.3829, 17.3923, 36.3371, 30.3445, 8.49761, 4.91566, 0.896547, 0, 0, 3.88476, 2.44311, 9.71757, 0, 12.6804, 0, 13.4465, 12.6804, 1.33333, 0, 0, 1.1132, 0, 0, 0, 0.841318, 3.2957, 0, 3.2957, 0, 10.7608, 0, 1.66602, 3.22967, 0.9375, 1.00251, 0, 0, 0, 35.527, 1.2, 0, 0, 0, 0, 4.95, 2.79365, 3.37416, 33.6135, 2.01005, 0, 1.2, 35.2482, 1.82278, 28.4031, 0, 3.02267, 8.77922, 0, 0, 0, 0, 9.89011, 2.21354, 0, 0, 1.94567, 9.89011, 1.04167, 3.2, 2.01005, 0, 0, 0, 0, 1.33161, 1.93852, 18.8991, 15.6527, 4.57894, 0, 3.55652, 1.47007, 1.00251, 3.69318, 5.05295, 3.9375, 0, 0, 4.60079, 0, 4.60079, 4, 0, 5.6045, 0, 1.00251, 65.1163, 1.00251, 1.00251, 0.930774, 0, 6.6324, 2.66613, 2.25, 3, 0, 2.05722, 1.90476, 4.19856, 2.05722, 0, 0, 1.3356, 2.61296, 27.1731, 0, 1.82278, 0, 0, 0, 1.00251, 13.579, 24.5233, 0, 1.00251, 7.14286, 0, 0, 1.04167, 0, 2.8, 0, 0, 0, 0.828906, 11.3051, 1.86003, 1.14286, 0.497306, 9.6747, 0.040404, 2, 0, 0.616511, 0, 53.3554, 53.3554, 53.3554, 53.3554, 25.1556, 0, 47.0832, 41.3343, 49.1965, 0, 1.22182, 0, 8.85846, 31.104, 10.9453, 4.04079, 0, 12.789, 1.66667, 49.1965, 8.21909, 3, 0, 0, 2.62483, 0, 0, 0, 3.95659, 3.69068, 2.01005, 10.1424, 2.1, 9.42134, 0, 0, 0, 3.90812, 59.4864, 2, 0, 0, 6.71159, 0, 0, 48.3621, 0, 44.9423, 0, 2.07186, 0, 1.53846, 51.4439, 0, 2.01407, 0.0100566, 3.02621, 8.3491, 1.02659, 0, 20.9881, 2.62726, 4.20059, 0, 0, 1.25644, 1.00251, 0, 22.1204, 0, 5.52995, 1.41216, 0, 3.43975, 7.42445, 7.42445, 58.5135, 0, 0, 0, 16.1365, 0, 0, 14.9003, 0, 0, 6.2889, 9.40321, 2.01005, 0, 0.160256, 2.41071, 2.26041, 25.1791, 1.00251, 0.987218, 0, 19.6416, 1.7316, 19.6416, 0, 29.2641, 3.89585, 0, 1.77778, 79.7829, 1.00251, 79.7829, 0.335852, 78.1975, 0, 0, 0, 9.9214, 9.9214, 0, 14.9184, 0, 12.0539, 1.40625, 6.41925, 0, 0, 22.6348, 0, 0, 6.09137, 3.02587, 11.2941, 0.651857, 0, 0.409982, 0, 0, 0, 16.4384, 0, 1.28565, 0, 21.726, 2.83688, 0, 0, 0, 8.64768, 0, 16.5107, 23.2679, 24.3269, 24.3269, 24.3269, 12.9895, 1.49091, 4, 2.01005, 3.78862, 0, 0, 0, 0, 0, 7.50487, 2.4, 0, 0, 0, 0, 0, 9.9192, 27.3712, 0, 0, 0, 0, 1.2, 39.7387, 26.9317, 13.4874, 1.69795, 0, 0, 0, 4.47338, 53.0196, 3.07709, 0, 0, 0, 48.812, 1.7618, 0, 0, 0.480215, 14.7096, 1.6159, 6.47214, 0, 0, 0, 2.91667, 13.1316, 0.517154, 0.0403266, 0, 1.3083, 0, 10.6862, 0, 0, 15.4825, 0, 13.7751, 4, 2.00653, 0, 0, 13.0532, 0.250006, 0, 15.8192, 14.6626, 0, 6.06897, 0, 3.80984, 14.681, 29.1662, 0, 11.1111, 0, 0, 0, 0, 12.2787, 1.55646, 6.13902, 2.14286, 0, 2, 2.01005, 0, 21.6415, 0, 0, 2, 15.0092, 0, 0, 0, 0, 2, 1.59574, 0, 9.06008, 0, 0, 27.0508, 0, 7.98763, 9.42761, 0.646639, 0.444444, 0, 8.10266, 0, 9.33831, 9.33831, 0, 5.2081, 9.33831, 0, 2, 0, 2, 0.916667, 0, 0, 6.37306, 0, 0, 0, 0, 0.488985, 0, 0, 0.891209, 1.3111, 0.933063, 0, 0, 5.77562, 1.3111, 0, 2.30447, 2.78623, 0, 0, 0, 0, 0, 12.7604, 1.14852, 0, 0, 0, 0, 1.00251, 1.14852, 18.3148, 0, 0.312564, 4.55977, 2.63172, 0.972192, 0, 0, 0, 2.63172, 1.2, 2.63172, 21.3319, 0, 0, 0, 8.42872, 3.02267, 20.5172, 29.0818, 4.46375, 0.937258, 11.9601, 1.26984, 8.97668, 2.70728, 0, 0, 1.43183, 9.06506, 1.98768, 7.9569, 0, 2, 0, 0, 0.93603, 9.00827, 25.3271, 20.1026, 20.1026, 0, 1.56948, 0, 0, 1.89474, 1.72629, 5.74061, 1.20956, 1.63949, 0.440829, 0.353571, 0, 0, 0, 0, 2.49019, 1.26984, 7.70792, 0, 0, 2.29041, 0, 4.0404, 0, 11.347, 2.98667, 4.86232, 0, 0, 0, 0.177778, 7.27105, 0, 13.9863, 3.9171, 4.38457, 0, 3.89427, 0, 3.79167, 17.3884, 9.88963, 0, 0, 14.2259, 0, 0, 3.16972, 2.59259, 0, 3.53926, 0, 1.99748, 0.75, 0, 0, 0, 4.68993, 0, 6.61843, 1.76062, 8.03167, 0, 2.9813, 0, 0.715564, 0, 5.24592, 1.2, 4, 8.21809, 0, 2.05714, 1.66547, 4.26148, 0, 5.34574, 0, 1.875, 0, 0, 0, 0, 0, 17.8977, 11.7311, 0, 9.77366, 0, 28.2051, 0, 0, 8.91113, 0, 8.91113, 24.8915, 2.22222, 24.8432, 0, 19.0476, 0, 0, 2.70728, 0, 0, 10.7084, 10.7084, 1.58824, 2.1, 0, 16.4541, 0, 0, 3.02267, 1.2, 10.0133, 0, 0, 2.01005, 0, 2.46432, 8.1939, 0, 0, 10.3697, 10.3697, 0, 0, 1.5, 0, 11.8883, 0, 2, 0, 19.7353, 2.89094, 0, 5.06329, 5.90778, 2.84248, 0.837527, 5.06329, 10.5447, 13.7068, 5.73427, 26.8125, 26.8125, 1.50101, 0, 0, 0, 0, 10.1775, 5.17742, 5.17742, 15.4547, 0.75, 5.17742, 1.07863, 0, 4.54972, 13.9279, 0.507365, 6.51042, 10.9844, 0, 2.65415, 8.64537, 0, 11.6885, 0, 8.83932, 1.98692, 0, 23.4097, 1.04167, 2.34375, 1.82278, 0, 0, 13.7418, 0, 0, 0, 0, 4.2361, 1.5, 1.00251, 0, 2.01005, 3.01143, 5.05646, 0, 0.841318, 0, 3, 0, 22.2362, 0, 9.13637, 9.13637, 9.13637, 3, 14.3801, 0, 3.00274, 0, 3.47368, 6.09137, 0, 0, 1.00251, 4.0404, 0, 3, 0, 0, 1.73121, 11, 0, 0, 4.0404, 2.97243, 3, 0, 0.200306, 0, 0, 3.13939, 1.37457, 1.66667, 10, 1.98768, 2.79297, 1.9536, 0, 6.17842, 0, 9.61845, 10.0356, 10.9704, 1.33333, 0, 1.00251, 0, 0, 0, 0, 2.01005, 16.8203, 0, 0, 0, 2.62889, 4, 1.8431, 1.00251, 0, 0, 18.6046, 0.353878, 1.24848, 7.55446, 5.6338, 0, 0, 0, 0.389565, 0.530134, 7.59759, 1.11563, 3, 1.39803, 56.9235, 0, 7.81568, 0, 1.00251, 10.1869, 0, 0.965752, 4.73723, 4, 3.96978, 3.58666, 0, 0, 2.30319, 2.5362, 18.0525, 0, 18.0525, 4.18726, 3.14683, 51.8909, 1.82278, 15.9019, 0, 1.72441, 1.12246, 3.80444, 0, 18.5244, 1.00251, 0, 3.88156, 0, 1.5, 0, 4.0404, 0, 0, 4.09752, 2.35697, 0, 0, 2.25, 0, 0, 0.410354, 6.38298, 9.54263, 0, 17.8956, 0.611194, 5.2662, 0, 0, 6.3, 0.37037, 2.47474, 0, 7.37127, 0.072799, 0.268882, 19.182, 1.07775, 0.900115, 2.15303, 19.7768, 9.87532, 0.978971, 0.483582, 1.22102, 1.44709, 6.8428, 6.8428, 1.4026, 0.75, 0, 0, 2.70728, 0.510204, 1.00251, 0.793252, 16.1616, 3.02267, 2.70728, 2.91539, 1.33333, 0, 2.83242, 2.04082, 4.05485, 1.00251, 0.8, 0, 1.00251, 0.537059, 0, 0, 13.2632, 26.0419, 0, 26.0419, 0.8, 4, 26.0419, 26.0419, 33.75, 3.27273, 26.0419, 2.59259, 0, 5.24783, 0, 1.875, 1.81978, 0, 0, 0, 2.4, 6.00198, 20.7636, 0, 0, 0, 0, 1.7316, 10.3728, 10.3728, 10.3728, 1.82278, 11.6842, 0, 53.6285, 16.6278, 0, 8.57433, 1.66667, 2.4, 0.975566, 0, 0, 46.9526, 9.47312, 0.491095, 0, 0, 2.9894, 0, 2.4, 0, 4.85749, 20.5604, 9.70769, 18.6382, 9.8264, 2, 14.0625, 0, 6.17485, 2.02667, 0, 0.819138, 3.42857, 0, 9.65251, 0, 0, 0, 0, 0, 10.6356, 0, 0, 0, 15.5844, 1.40532, 3.66181, 0, 0, 11.0437, 1.00251, 1.24171, 2.63818, 0, 0, 0, 0, 18.9868, 0, 0, 0, 0, 0, 0.964286, 0, 0, 0, 0, 18.9868, 14.3265, 1.90476, 0, 7.42972, 0, 4.11698, 0, 21, 0.510204, 56.25, 1.68147, 2.93333, 7.11034, 0.533929, 4.31831, 0, 0.422727, 0.0914286, 2.72476, 0, 2.21662, 2.70166, 3.01143, 2.22981, 0, 4.23821, 0, 4.1961, 3.18302, 3.18302, 9.04041, 5.01341, 0, 1.58148, 0, 2.6162, 41.1678, 35.9125, 0, 0.335852, 0, 20.664, 0, 11.9858, 0, 3.10448, 10.9867, 1.64103, 0.266312, 1.37026, 2.05714, 10.1598, 6.74128, 0, 2.00132, 32.6738, 2, 0, 6.71234, 0, 1.90476, 13.7346, 0, 0.625, 24.177, 1.24163, 27.9389, 0, 9.84276, 11.7911, 9.17321, 0, 23.2198, 15.7452, 2.97812, 0, 0.610992, 0, 3.15284, 0, 0, 12.1177, 0, 0, 0.479715, 5.60634, 2.01005, 0.36294, 0, 0, 9.8974, 0, 6.21578, 0.160016, 0, 0, 0, 0.646154, 0, 1.24823, 0, 4.0404, 0, 15.2125, 4.0404, 1.09913, 0.75, 10.9286, 0, 0, 1.00251, 13.8943, 5.83333, 3, 24.1109, 7.42812, 7.61851, 7.61851, 0, 0, 11.0104, 12.1568, 10.2731, 2.26041, 11.4831, 1.95833, 0, 0, 0, 0.833333, 0, 0, 0.888889, 0, 0, 0, 0, 8, 0, 0, 0, 0, 0, 0, 0, 0, 1.6, 7.66375, 1.16144, 0.728745, 0, 3.50575, 21.3894, 0, 0, 0.672551, 6.22275, 1.00251, 2.17, 1.875, 5.9875, 1.00251, 5.00511, 0, 28.7855, 0, 15.9452, 2.01005, 15.9452, 0, 2.01005, 5.00511, 2.09362, 1.58231, 3.78865, 17.7151, 0, 8.76783, 0, 1.06897, 0, 4.28571, 4.09614, 8.99585, 0, 0, 1.62822, 2.50884, 1.8404, 0, 7.2221, 0, 5.63597, 1.73208, 0, 1.33333, 0.207322, 0, 1.09785, 7.57186, 0, 1.22825, 1.33333, 4.59184, 0, 0, 0, 16.2982, 0.414815, 0, 3.45762, 0.260957, 4.80588, 0.126649, 0, 4.46719, 1.57917, 6.55147, 1.33333, 0, 24.4622, 0, 0, 0, 1.06363, 0, 0, 0, 0.410256, 0, 0.0152028, 0, 0.410256, 4.01786, 0.410256, 1.0101, 0, 0, 0.179739, 5.06329, 0.410256, 3.9375, 1.07725, 0, 0, 2.19156, 0, 0, 0.637544, 0.486429, 3.70851, 0.934855, 0, 0, 3.81283, 0, 0, 0, 4.64782, 0, 0, 0, 0, 1.09834, 0.0210804, 1.04167, 13.4444, 13.4444, 0, 13.4444, 1.9576, 1.9576, 0, 0, 2.06056, 0.57898, 3, 4.0404, 0, 0, 7.1773, 0, 5.03807, 0, 0.208704, 2.1893, 0, 8.76783, 8.37696, 3.02267, 0, 0, 8.76783, 15.5423, 6.71282, 1.30272, 8.37696, 8.37696, 3.05193, 0, 5.74287, 3.18088, 5.30605, 2, 1.00571, 2.67429, 8.37696, 0, 11.308, 24.318, 1.14661, 0, 0, 0, 0, 9.77994, 2.01005, 0, 20.1083, 0, 0, 0, 0, 6.313, 1.38595, 1.90876, 5.97917, 1.37974, 1.38595, 3.28863, 0, 0.374026, 11.7752, 2, 0, 0, 1.50099, 0, 0.3, 0, 6.05465, 0, 7.26476, 9.8732, 2.125, 12.7033, 0, 0, 7, 16.9637, 0, 0, 0.343643, 3.02267, 0.0613591, 0, 0.343643, 0, 0.343643, 0, 0, 0, 6, 0, 1.53586, 4.45045, 0.210526, 2.26997, 9, 4.14348, 0, 1.16169, 0, 0, 0, 0, 0.497306, 2, 0.497306, 0.497306, 0, 1.0101, 2.24905, 1.01855, 2.31465, 0, 1.45248, 2.34256, 0, 1.7316, 0, 16.8304, 0, 4, 2, 8.57548, 1.62931, 2.33305, 0, 0, 1.7316, 1.33108, 1.17002, 0, 0, 13.1893, 1.7316, 6, 23.9219, 1.18431, 5.85012, 5.85012, 5.85012, 1.41168, 2.45776, 1.32079, 3.09717, 0, 4.66667, 0.3, 0}
The best candidate(s) index:coordinate is/are : 1024:10558,  with a chi-2 statistic of = 113.666 and with a p-value of 0.

 --- End of statistics on data --- 

