FastARG parameters are : 
 -The data file is                     : 500_1000_Nguyen(test3).dat
 -The specified number of sequences is : 500
 -The specified size of sequences is   : 1000
 -The algorithm is                     : Manhattan
 -The coalescence mode is              : HAVE_ANCESTRAL_MATERIAL_IN_COMMON
 -The recombination mode is            : HAVE_ANCESTRAL_MATERIAL_ONLY
 -The random seed flag is              : false
 -The seed is                          : 0
 -The Rplot settings                   : false


             ***  Manhattan ARG summary *** 
Basic attributes.
 - Length of sequences   : 1000
 - Number of sequences   : 500
 - Total number of nodes : 9006
 - Total of lives nodes  : 1
 - Sum of mutant loci    : 0

Quantity of each type of event in the current state of the ARG.
 - Mutation event      : 645
 - Coalescence event   : 2953
 - Recombination event : 2454

Quantity of possible events for each type.
 - Possible mutation event        : 0
 - Possible coalescence event     : 0
 - Number of position to be muted : 0

Manhattan specific attributes :
 - The seed is                        : 0
Constructed in 5 seconds.
